{
"type": "FeatureCollection",
"name": "passenger_flow_mpp_Bus",
"crs": { "type": "name", "properties": { "name": "urn:ogc:def:crs:OGC:1.3:CRS84" } },
"features": [
{ "type": "Feature", "properties": { "passengers_mpp": 43.0 }, "geometry": { "type": "LineString", "coordinates": [ [ 29.90231744234201, 31.191846293377406 ], [ 29.901864716491765, 31.192834914984164 ], [ 29.901534, 31.192964 ], [ 29.901397, 31.193047 ], [ 29.901352, 31.193113 ], [ 29.903803, 31.193997 ], [ 29.9082, 31.195624 ], [ 29.909224, 31.196022 ], [ 29.910258, 31.196614 ], [ 29.911435, 31.197209 ], [ 29.914252, 31.198251 ], [ 29.914674, 31.198389 ], [ 29.915371726283695, 31.19884369802757 ], [ 29.916253815006936, 31.198586103031907 ] ] } },
{ "type": "Feature", "properties": { "passengers_mpp": 52.0 }, "geometry": { "type": "LineString", "coordinates": [ [ 29.90231744234201, 31.191846293377406 ], [ 29.902157822520852, 31.191220737400084 ], [ 29.901445, 31.19018 ], [ 29.901362, 31.190092 ], [ 29.901208, 31.18999 ], [ 29.900911, 31.189848 ], [ 29.899892, 31.189445 ], [ 29.899155, 31.189175 ], [ 29.897149, 31.188479 ], [ 29.893027, 31.186862 ], [ 29.891394, 31.186207 ], [ 29.89043, 31.185841 ], [ 29.888328, 31.184998 ], [ 29.887872, 31.184798 ], [ 29.887354, 31.184617 ], [ 29.887182, 31.18458 ], [ 29.887092, 31.184586 ], [ 29.886887, 31.184658 ], [ 29.886385490263336, 31.183529396539871 ] ] } },
{ "type": "Feature", "properties": { "passengers_mpp": 1245.0 }, "geometry": { "type": "LineString", "coordinates": [ [ 29.916276573750547, 31.200812175134505 ], [ 29.916112451461849, 31.200804666497895 ], [ 29.916215, 31.200439 ], [ 29.916245, 31.20023 ], [ 29.916253, 31.199872 ], [ 29.916196, 31.199042 ], [ 29.916145, 31.19873 ], [ 29.916043980738493, 31.198536817960175 ], [ 29.916253815006936, 31.198586103031907 ] ] } },
{ "type": "Feature", "properties": { "passengers_mpp": 193.0 }, "geometry": { "type": "LineString", "coordinates": [ [ 29.916253815006936, 31.198586103031907 ], [ 29.916043980738493, 31.198536817960175 ], [ 29.91578, 31.198032 ], [ 29.915441, 31.197111 ], [ 29.910813, 31.195597 ], [ 29.904761, 31.193355 ], [ 29.9043315, 31.193588250409899 ] ] } },
{ "type": "Feature", "properties": { "passengers_mpp": 216.0 }, "geometry": { "type": "LineString", "coordinates": [ [ 29.916253815006936, 31.198586103031907 ], [ 29.916043980738493, 31.198536817960175 ], [ 29.91578, 31.198032 ], [ 29.915441, 31.197111 ], [ 29.912546, 31.196174 ], [ 29.912381, 31.196194 ], [ 29.912135, 31.196278 ], [ 29.91195, 31.1964 ], [ 29.911843, 31.196509 ], [ 29.911727, 31.196699 ], [ 29.911535, 31.197096 ], [ 29.911435, 31.197209 ], [ 29.910995, 31.197983 ], [ 29.910208, 31.199445 ], [ 29.909773, 31.200289 ], [ 29.909419, 31.200909 ], [ 29.909023, 31.201751 ], [ 29.908112, 31.201324 ], [ 29.907917, 31.201662 ], [ 29.907881, 31.2017 ], [ 29.907758, 31.201745 ], [ 29.907586, 31.201734 ], [ 29.9072, 31.202673 ], [ 29.907046232418825, 31.203080199335318 ], [ 29.907044993661337, 31.203079885480996 ] ] } },
{ "type": "Feature", "properties": { "passengers_mpp": 871.0 }, "geometry": { "type": "LineString", "coordinates": [ [ 29.923688939258131, 31.189394430002 ], [ 29.923742579536516, 31.189381856527589 ], [ 29.923692, 31.189616 ], [ 29.923679, 31.190013 ], [ 29.923701, 31.190245 ], [ 29.923979, 31.191671 ], [ 29.923966, 31.191897 ], [ 29.923844, 31.192159 ], [ 29.923545, 31.192619 ], [ 29.922188, 31.194423 ], [ 29.921899, 31.194746 ], [ 29.921717, 31.194908 ], [ 29.92147, 31.195084 ], [ 29.921288, 31.195177 ], [ 29.91965, 31.195877 ], [ 29.918228, 31.19654 ], [ 29.918108, 31.196609 ], [ 29.918001, 31.196693 ], [ 29.917518, 31.197235 ], [ 29.916868, 31.198068 ], [ 29.916616277387941, 31.198542175152934 ], [ 29.916253815006936, 31.198586103031907 ] ] } },
{ "type": "Feature", "properties": { "passengers_mpp": 988.0 }, "geometry": { "type": "LineString", "coordinates": [ [ 29.928792899983424, 31.180277683313456 ], [ 29.928634579174723, 31.179941093689703 ], [ 29.930304, 31.177056 ], [ 29.93067, 31.176313 ], [ 29.932667, 31.172854 ], [ 29.933654, 31.171059 ], [ 29.933788, 31.170778 ], [ 29.933944, 31.170342 ], [ 29.934125, 31.169616 ], [ 29.934293, 31.16919 ], [ 29.934521, 31.168759 ], [ 29.934719, 31.16851 ], [ 29.93512, 31.167738 ], [ 29.935195, 31.167558 ], [ 29.935247, 31.16738 ], [ 29.935293, 31.167044 ], [ 29.935276, 31.166713 ], [ 29.935202, 31.166389 ], [ 29.935082, 31.166075 ], [ 29.934897, 31.165746 ], [ 29.934014, 31.164657 ], [ 29.933702, 31.164302 ], [ 29.933653863618488, 31.164232663127052 ], [ 29.933895810611919, 31.16428342693786 ] ] } },
{ "type": "Feature", "properties": { "passengers_mpp": 170.0 }, "geometry": { "type": "LineString", "coordinates": [ [ 29.928792899983424, 31.180277683313456 ], [ 29.928765499923564, 31.180086468236468 ], [ 29.92833, 31.180863 ], [ 29.927715321858514, 31.181865423317046 ], [ 29.927514347771162, 31.181856211596113 ] ] } },
{ "type": "Feature", "properties": { "passengers_mpp": 168.0 }, "geometry": { "type": "LineString", "coordinates": [ [ 29.928792899983424, 31.180277683313456 ], [ 29.928978620851982, 31.180805485751687 ], [ 29.929064, 31.180887 ], [ 29.929192, 31.181087 ], [ 29.929207, 31.181252 ], [ 29.929161, 31.181413 ], [ 29.929055, 31.181551 ], [ 29.928899, 31.181648 ], [ 29.92881, 31.181679 ], [ 29.928362, 31.181752 ], [ 29.928112, 31.181831 ], [ 29.927996, 31.181888 ], [ 29.927788, 31.182032 ], [ 29.927621, 31.18221 ], [ 29.927215, 31.182931 ], [ 29.927146, 31.183025 ], [ 29.926979, 31.183195 ], [ 29.926748, 31.183634 ], [ 29.926446, 31.184138 ], [ 29.924513756412725, 31.187736575103582 ], [ 29.924488409922425, 31.187699590462717 ] ] } },
{ "type": "Feature", "properties": { "passengers_mpp": 9.0 }, "geometry": { "type": "LineString", "coordinates": [ [ 29.928792899983424, 31.180277683313456 ], [ 29.928634579174723, 31.179941093689703 ], [ 29.930304, 31.177056 ], [ 29.93067, 31.176313 ], [ 29.932667, 31.172854 ], [ 29.933654, 31.171059 ], [ 29.933788, 31.170778 ], [ 29.933944, 31.170342 ], [ 29.934125, 31.169616 ], [ 29.934293, 31.16919 ], [ 29.934521, 31.168759 ], [ 29.934719, 31.16851 ], [ 29.9349195, 31.16812400078647 ] ] } },
{ "type": "Feature", "properties": { "passengers_mpp": 983.0 }, "geometry": { "type": "LineString", "coordinates": [ [ 29.933895810611919, 31.16428342693786 ], [ 29.933653863618488, 31.164232663127052 ], [ 29.933232, 31.163625 ], [ 29.933077, 31.163437 ], [ 29.93266, 31.163016 ], [ 29.932033843314585, 31.16240972631417 ], [ 29.932114174387429, 31.162357560502041 ] ] } },
{ "type": "Feature", "properties": { "passengers_mpp": 9.0 }, "geometry": { "type": "LineString", "coordinates": [ [ 29.933895810611919, 31.16428342693786 ], [ 29.934014, 31.164657 ], [ 29.93397, 31.164537 ], [ 29.933984, 31.164413 ], [ 29.934006, 31.164378 ], [ 29.934076, 31.164327 ], [ 29.93412, 31.164314 ], [ 29.934212, 31.164316 ], [ 29.934293, 31.164352 ], [ 29.934801, 31.164787 ], [ 29.93498, 31.164874 ], [ 29.936313, 31.16616 ], [ 29.936382, 31.166346 ], [ 29.936392, 31.166476 ], [ 29.936371, 31.166606 ], [ 29.936322, 31.16673 ], [ 29.935048, 31.169019 ], [ 29.934858, 31.169156 ], [ 29.934773, 31.1692 ], [ 29.934673, 31.169203 ], [ 29.934585, 31.169164 ], [ 29.934529, 31.169094 ], [ 29.934519, 31.169009 ], [ 29.93465, 31.168714 ], [ 29.934719, 31.16851 ], [ 29.9349195, 31.16812400078647 ] ] } },
{ "type": "Feature", "properties": { "passengers_mpp": 996.0 }, "geometry": { "type": "LineString", "coordinates": [ [ 29.932114174387429, 31.162357560502041 ], [ 29.932033843314585, 31.16240972631417 ], [ 29.930676, 31.161095 ], [ 29.924455, 31.155004 ], [ 29.922721, 31.153474 ], [ 29.919254, 31.150064 ], [ 29.918883, 31.149664 ], [ 29.89618, 31.127454 ], [ 29.895884, 31.127124 ], [ 29.895616, 31.126777 ], [ 29.894696, 31.125337 ], [ 29.89379, 31.123872 ], [ 29.893556, 31.123539 ], [ 29.893389, 31.123307 ], [ 29.893025, 31.122864 ], [ 29.892609, 31.122452 ], [ 29.890525, 31.120669 ], [ 29.889856, 31.120171 ], [ 29.884637667820826, 31.115685081523136 ], [ 29.884771256056911, 31.115575418190023 ] ] } },
{ "type": "Feature", "properties": { "passengers_mpp": 893.0 }, "geometry": { "type": "LineString", "coordinates": [ [ 29.882882973953386, 31.11394685293687 ], [ 29.882967491113398, 31.113875646643741 ], [ 29.883442, 31.114288 ], [ 29.884312, 31.115187 ], [ 29.88477437165594, 31.115583597316274 ], [ 29.884771256056911, 31.115575418190023 ] ] } },
{ "type": "Feature", "properties": { "passengers_mpp": 965.0 }, "geometry": { "type": "LineString", "coordinates": [ [ 29.882882973953386, 31.11394685293687 ], [ 29.882798456793381, 31.114018059176594 ], [ 29.877752, 31.109718 ], [ 29.877222, 31.109308 ], [ 29.876939, 31.109122 ], [ 29.876353, 31.108779 ], [ 29.875715, 31.108467 ], [ 29.875076, 31.10821 ], [ 29.871681, 31.107043 ], [ 29.866402, 31.105414 ], [ 29.865706, 31.105168 ], [ 29.865025, 31.104897 ], [ 29.864602, 31.104705 ], [ 29.863824, 31.104308 ], [ 29.863112, 31.103898 ], [ 29.861848, 31.103068 ], [ 29.860596, 31.102281 ], [ 29.857287, 31.100097 ], [ 29.857022, 31.099937 ], [ 29.856526, 31.099581 ], [ 29.856078, 31.099181 ], [ 29.855684, 31.098741 ], [ 29.855348, 31.098268 ], [ 29.855192, 31.097994 ], [ 29.854879, 31.097309 ], [ 29.85439, 31.096087 ], [ 29.853541, 31.093419 ], [ 29.852879, 31.091244 ], [ 29.852246, 31.089313 ], [ 29.851937, 31.08849 ], [ 29.851826, 31.088247 ], [ 29.8517, 31.088008 ], [ 29.851428, 31.087563 ], [ 29.850897, 31.08684 ], [ 29.850363, 31.086264 ], [ 29.848794, 31.084875 ], [ 29.843915, 31.08073 ], [ 29.843565, 31.080409 ], [ 29.84302167429513, 31.079938764878641 ], [ 29.843146860566215, 31.079872771352221 ] ] } },
{ "type": "Feature", "properties": { "passengers_mpp": 13.0 }, "geometry": { "type": "LineString", "coordinates": [ [ 29.851176, 31.072686000341935 ], [ 29.85167, 31.072431 ], [ 29.852149, 31.074194 ], [ 29.85216, 31.074463 ], [ 29.852112, 31.074664 ], [ 29.85206, 31.074756 ], [ 29.851905, 31.074912 ], [ 29.851782, 31.074973 ], [ 29.851644, 31.075 ], [ 29.851502, 31.07499 ], [ 29.851371, 31.074943 ], [ 29.851262, 31.074865 ], [ 29.851198, 31.074759 ], [ 29.851113, 31.074892 ], [ 29.851019, 31.075097 ], [ 29.850682, 31.076102 ], [ 29.850564, 31.076311 ], [ 29.85046, 31.076349 ], [ 29.849937, 31.076422 ], [ 29.849743, 31.076489 ], [ 29.849735, 31.076507 ], [ 29.849804, 31.076711 ], [ 29.849799, 31.076731 ], [ 29.8497, 31.07678 ], [ 29.850042, 31.077395 ], [ 29.850056, 31.077477 ], [ 29.848605, 31.078772 ], [ 29.845359, 31.081597 ], [ 29.846755, 31.082866 ], [ 29.850138, 31.085776 ], [ 29.850702, 31.086313 ], [ 29.850959, 31.0866 ], [ 29.851346, 31.087106 ], [ 29.851618, 31.087533 ], [ 29.851881, 31.087985 ], [ 29.852096, 31.088455 ], [ 29.852868, 31.090686 ], [ 29.85463, 31.096129 ], [ 29.855028, 31.097181 ], [ 29.855257, 31.097665 ], [ 29.855565, 31.098192 ], [ 29.855974, 31.098726 ], [ 29.856228, 31.099004 ], [ 29.856502, 31.099268 ], [ 29.856795, 31.099516 ], [ 29.857105, 31.099747 ], [ 29.860749, 31.102144 ], [ 29.862299, 31.103132 ], [ 29.863302, 31.103748 ], [ 29.864232, 31.104264 ], [ 29.865065, 31.104656 ], [ 29.865898, 31.104966 ], [ 29.868864, 31.105891 ], [ 29.871768, 31.106852 ], [ 29.874834, 31.107823 ], [ 29.875141, 31.107942 ], [ 29.875741, 31.108205 ], [ 29.876639, 31.108677 ], [ 29.877377, 31.109151 ], [ 29.877888, 31.109543 ], [ 29.878266, 31.10979 ], [ 29.882967491113398, 31.113875646643741 ], [ 29.882882973953386, 31.11394685293687 ] ] } },
{ "type": "Feature", "properties": { "passengers_mpp": 85.0 }, "geometry": { "type": "LineString", "coordinates": [ [ 29.843146860566215, 31.079872771352221 ], [ 29.84302167429513, 31.079938764878641 ], [ 29.841662, 31.078762 ], [ 29.841218608812067, 31.078418390585327 ], [ 29.841303818071374, 31.078299014015769 ] ] } },
{ "type": "Feature", "properties": { "passengers_mpp": 137.0 }, "geometry": { "type": "LineString", "coordinates": [ [ 29.841303818071374, 31.078299014015769 ], [ 29.841218608812067, 31.078418390585327 ], [ 29.841071, 31.078304 ], [ 29.839977, 31.077384 ], [ 29.83958, 31.077083 ], [ 29.839166, 31.076799 ], [ 29.838737, 31.076532 ], [ 29.838294, 31.076283 ], [ 29.824386, 31.069235 ], [ 29.822819, 31.068466 ], [ 29.819747, 31.066876 ], [ 29.814059, 31.064002 ], [ 29.812495, 31.063185 ], [ 29.811591, 31.062656 ], [ 29.811013, 31.062275 ], [ 29.810246, 31.06171 ], [ 29.808138690709381, 31.059973401358214 ], [ 29.808313746730775, 31.059812148268755 ] ] } },
{ "type": "Feature", "properties": { "passengers_mpp": 43.0 }, "geometry": { "type": "LineString", "coordinates": [ [ 29.841303818071374, 31.078299014015769 ], [ 29.841389027330688, 31.078179637296316 ], [ 29.841793, 31.078517 ], [ 29.842161, 31.078867 ], [ 29.842512, 31.078988 ], [ 29.842612, 31.078978 ], [ 29.842698, 31.078933 ], [ 29.842753, 31.07886 ], [ 29.842867, 31.078624 ], [ 29.843079657566292, 31.077878657213262 ] ] } },
{ "type": "Feature", "properties": { "passengers_mpp": 91.0 }, "geometry": { "type": "LineString", "coordinates": [ [ 29.806393798173673, 31.058245383744197 ], [ 29.806546100155614, 31.058111328746623 ], [ 29.807419, 31.05882 ], [ 29.808488802752159, 31.059650894905946 ], [ 29.808313746730775, 31.059812148268755 ] ] } },
{ "type": "Feature", "properties": { "passengers_mpp": 908.0 }, "geometry": { "type": "LineString", "coordinates": [ [ 29.783389265161436, 31.044904658117122 ], [ 29.783523442761549, 31.044863070542053 ], [ 29.78375, 31.045077 ], [ 29.784084, 31.045341 ], [ 29.784464, 31.045584 ], [ 29.790231, 31.048386 ], [ 29.798874, 31.052506 ], [ 29.79967, 31.052915 ], [ 29.800423, 31.053345 ], [ 29.801843, 31.054261 ], [ 29.802779, 31.054971 ], [ 29.804985, 31.056822 ], [ 29.805684, 31.05738 ], [ 29.806542, 31.058108 ], [ 29.806546100155614, 31.058111328746623 ], [ 29.806393798173673, 31.058245383744197 ] ] } },
{ "type": "Feature", "properties": { "passengers_mpp": 42.0 }, "geometry": { "type": "LineString", "coordinates": [ [ 29.843079657566292, 31.077878657213262 ], [ 29.843786, 31.075403 ], [ 29.843849, 31.075126 ], [ 29.843887, 31.074733 ], [ 29.843869, 31.074282 ], [ 29.84351, 31.072331 ], [ 29.84389, 31.072182 ], [ 29.844101, 31.072115 ], [ 29.844216, 31.072102 ], [ 29.844332, 31.072108 ], [ 29.844444, 31.072132 ], [ 29.844683, 31.072241 ], [ 29.844782, 31.072312 ], [ 29.844866, 31.072398 ], [ 29.84506, 31.072725 ], [ 29.845461, 31.073236 ], [ 29.845702, 31.073495 ], [ 29.846274, 31.073973 ], [ 29.846422, 31.074167 ], [ 29.846498, 31.074329 ], [ 29.846517, 31.074559 ], [ 29.846571, 31.074699 ], [ 29.846626, 31.074743 ], [ 29.846702, 31.074751 ], [ 29.847925, 31.074058 ], [ 29.848923, 31.074227 ], [ 29.849033, 31.074024 ], [ 29.849754, 31.073251 ], [ 29.84989, 31.073153 ], [ 29.850206, 31.073021 ], [ 29.85042, 31.072971 ], [ 29.850682, 31.072941 ], [ 29.851176, 31.072686000341935 ] ] } },
{ "type": "Feature", "properties": { "passengers_mpp": 479.0 }, "geometry": { "type": "LineString", "coordinates": [ [ 30.009773266336598, 31.261638567546768 ], [ 30.009385318890882, 31.261962305272043 ], [ 30.00904, 31.262184 ], [ 30.007561, 31.263022 ], [ 30.006976303893826, 31.263370530922341 ], [ 30.006913158255863, 31.263293997903798 ] ] } },
{ "type": "Feature", "properties": { "passengers_mpp": 275.0 }, "geometry": { "type": "LineString", "coordinates": [ [ 30.01134951073243, 31.260392001431072 ], [ 30.011416906631879, 31.260449728020529 ], [ 30.01107, 31.260707 ], [ 30.010022, 31.26153 ], [ 30.00954, 31.261863 ], [ 30.009385318890882, 31.261962305272043 ], [ 30.009773266336598, 31.261638567546768 ] ] } },
{ "type": "Feature", "properties": { "passengers_mpp": 504.0 }, "geometry": { "type": "LineString", "coordinates": [ [ 30.006913158255863, 31.263293997903798 ], [ 30.006976303893826, 31.263370530922341 ], [ 30.006078, 31.263906 ], [ 30.004801415312677, 31.26471297425266 ], [ 30.004273965127382, 31.264932676872593 ] ] } },
{ "type": "Feature", "properties": { "passengers_mpp": 429.0 }, "geometry": { "type": "LineString", "coordinates": [ [ 30.004273965127382, 31.264932676872593 ], [ 30.003848826335201, 31.2652676993109 ], [ 30.003427, 31.265475 ], [ 30.003165, 31.265585 ], [ 30.002982, 31.265685 ], [ 30.001637223033136, 31.266582421725875 ], [ 30.001327308881493, 31.266740073060404 ] ] } },
{ "type": "Feature", "properties": { "passengers_mpp": 560.0 }, "geometry": { "type": "LineString", "coordinates": [ [ 30.001327308881493, 31.266740073060404 ], [ 30.001075623740842, 31.266957198672944 ], [ 30.000502, 31.26734 ], [ 30.000118, 31.267671 ], [ 29.999527, 31.268403 ], [ 29.999295622005537, 31.268668265287765 ], [ 29.99923448450912, 31.268626428932901 ] ] } },
{ "type": "Feature", "properties": { "passengers_mpp": 562.0 }, "geometry": { "type": "LineString", "coordinates": [ [ 29.99923448450912, 31.268626428932901 ], [ 29.999295622005537, 31.268668265287765 ], [ 29.998694, 31.269358 ], [ 29.997772232606557, 31.270453404223982 ], [ 29.997958444769896, 31.270881778275825 ] ] } },
{ "type": "Feature", "properties": { "passengers_mpp": 587.0 }, "geometry": { "type": "LineString", "coordinates": [ [ 29.997958444769896, 31.270881778275825 ], [ 29.997772232606557, 31.270453404223982 ], [ 29.997335, 31.270973 ], [ 29.997048, 31.271208 ], [ 29.996924, 31.271242 ], [ 29.996766, 31.27126 ], [ 29.996538, 31.271239 ], [ 29.995953, 31.271117 ], [ 29.995559448581478, 31.271022690398397 ], [ 29.995690484497096, 31.270777784715467 ] ] } },
{ "type": "Feature", "properties": { "passengers_mpp": 15.0 }, "geometry": { "type": "LineString", "coordinates": [ [ 30.011408727388147, 31.281989611172325 ], [ 30.011464570144561, 31.282077062072755 ], [ 30.011151, 31.282159 ], [ 30.011005, 31.282161 ], [ 30.010909, 31.282132 ], [ 30.010822, 31.282082 ], [ 30.010731, 31.281993 ], [ 30.010322, 31.281084 ], [ 30.009814, 31.280276 ], [ 30.009462, 31.27984 ], [ 30.009213, 31.279589 ], [ 30.008556, 31.279081 ], [ 30.007527, 31.278217 ], [ 30.007313, 31.278071 ], [ 30.006923, 31.277895 ], [ 30.005681, 31.277474 ], [ 30.005497, 31.277438 ], [ 30.004158, 31.277393 ], [ 30.003763, 31.277367 ], [ 30.003554, 31.277319 ], [ 30.003331, 31.27723 ], [ 30.003093, 31.277019 ], [ 30.0028, 31.276592 ], [ 30.002704, 31.276378 ], [ 30.002641, 31.276158 ], [ 30.002541, 31.275921 ], [ 30.002291, 31.275373 ], [ 30.002175, 31.275196 ], [ 30.000692, 31.273454 ], [ 29.999333, 31.272087 ], [ 29.998949, 31.271759 ], [ 29.998632, 31.271573 ], [ 29.99824, 31.271413 ], [ 29.998207640561475, 31.271402277917389 ], [ 29.997958444769896, 31.270881778275825 ] ] } },
{ "type": "Feature", "properties": { "passengers_mpp": 603.0 }, "geometry": { "type": "LineString", "coordinates": [ [ 29.995690484497096, 31.270777784715467 ], [ 29.995559448581478, 31.271022690398397 ], [ 29.995181, 31.270932 ], [ 29.994767, 31.270864 ], [ 29.994523, 31.270849 ], [ 29.994405, 31.270825 ], [ 29.994179, 31.270746 ], [ 29.994097, 31.270676 ], [ 29.993238, 31.270112 ], [ 29.993107, 31.270059 ], [ 29.992825, 31.269995 ], [ 29.991161, 31.270057 ], [ 29.990334, 31.270031 ], [ 29.989611, 31.270134 ], [ 29.98921, 31.270161 ], [ 29.98858, 31.270154 ], [ 29.988412, 31.270136 ], [ 29.98796, 31.270025 ], [ 29.987837, 31.269963 ], [ 29.98751, 31.269747 ], [ 29.987293, 31.269547 ], [ 29.987091, 31.269281 ], [ 29.987001, 31.269095 ], [ 29.986898, 31.268731 ], [ 29.986821, 31.268367 ], [ 29.98681, 31.26823 ], [ 29.986821, 31.26812 ], [ 29.986891, 31.267904 ], [ 29.987274, 31.267399 ], [ 29.987322, 31.267308 ], [ 29.987361, 31.267172 ], [ 29.987424, 31.266718 ], [ 29.987429, 31.266367 ], [ 29.987399, 31.266167 ], [ 29.987339, 31.265972 ], [ 29.986606, 31.264424 ], [ 29.986386, 31.264082 ], [ 29.986057, 31.263694 ], [ 29.985842, 31.263477 ], [ 29.985611, 31.263272 ], [ 29.984675, 31.262507 ], [ 29.984444, 31.262346 ], [ 29.984254, 31.262236 ], [ 29.983832, 31.262063 ], [ 29.983249, 31.261918 ], [ 29.982904, 31.261793 ], [ 29.982741, 31.261715 ], [ 29.982438, 31.261529 ], [ 29.982171, 31.261306 ], [ 29.981942, 31.261058 ], [ 29.981755, 31.260777 ], [ 29.981637, 31.260506 ], [ 29.981622120399038, 31.260455544625838 ], [ 29.981680972039729, 31.260443829902208 ] ] } },
{ "type": "Feature", "properties": { "passengers_mpp": 603.0 }, "geometry": { "type": "LineString", "coordinates": [ [ 29.981680972039729, 31.260443829902208 ], [ 29.981622120399038, 31.260455544625838 ], [ 29.981527, 31.260133 ], [ 29.981417, 31.259913 ], [ 29.980837, 31.25924 ], [ 29.980633, 31.258965 ], [ 29.980318829578621, 31.2586082645538 ], [ 29.980410489258986, 31.258527293850292 ] ] } },
{ "type": "Feature", "properties": { "passengers_mpp": 530.0 }, "geometry": { "type": "LineString", "coordinates": [ [ 29.980410489258986, 31.258527293850292 ], [ 29.980318829578621, 31.2586082645538 ], [ 29.979858, 31.258085 ], [ 29.97964, 31.257894 ], [ 29.979136, 31.25758 ], [ 29.978911, 31.257404 ], [ 29.978715, 31.25718 ], [ 29.978188, 31.256428 ], [ 29.977961, 31.256206 ], [ 29.977287, 31.255639 ], [ 29.977112, 31.255517 ], [ 29.976733, 31.255306 ], [ 29.975665, 31.254823 ], [ 29.975391, 31.254751 ], [ 29.975249, 31.254731 ], [ 29.974675, 31.254697 ], [ 29.974241, 31.254631 ], [ 29.974029, 31.254568 ], [ 29.973828, 31.254482 ], [ 29.973642, 31.254375 ], [ 29.973324, 31.254123 ], [ 29.973047, 31.25384 ], [ 29.972303, 31.25283 ], [ 29.972036, 31.252542 ], [ 29.971625, 31.25218 ], [ 29.970991888557609, 31.251700386214356 ], [ 29.971057504238974, 31.251645552619728 ] ] } },
{ "type": "Feature", "properties": { "passengers_mpp": 641.0 }, "geometry": { "type": "LineString", "coordinates": [ [ 29.971057504238974, 31.251645552619728 ], [ 29.970991888557609, 31.251700386214356 ], [ 29.970433, 31.251277 ], [ 29.970078, 31.250963 ], [ 29.96976, 31.250618 ], [ 29.969617, 31.250435 ], [ 29.969282036574761, 31.249921027780704 ], [ 29.969375844967985, 31.249868025705371 ] ] } },
{ "type": "Feature", "properties": { "passengers_mpp": 110.0 }, "geometry": { "type": "LineString", "coordinates": [ [ 29.983951577560681, 31.254156800192252 ], [ 29.983893, 31.254011 ], [ 29.983845, 31.253677 ], [ 29.983814, 31.252991 ], [ 29.983771, 31.252775 ], [ 29.983662, 31.252578 ], [ 29.983072, 31.251951 ], [ 29.982139, 31.251064 ], [ 29.98087, 31.249891 ], [ 29.980043, 31.250519 ], [ 29.979921, 31.25058 ], [ 29.979853, 31.250596 ], [ 29.979751, 31.250825 ], [ 29.979643, 31.251014 ], [ 29.979416, 31.251358 ], [ 29.979247, 31.251571 ], [ 29.979053, 31.251769 ], [ 29.978784, 31.251975 ], [ 29.978389, 31.252197 ], [ 29.977931, 31.25239 ], [ 29.97745, 31.252525 ], [ 29.977134, 31.252586 ], [ 29.976737, 31.252629 ], [ 29.976433, 31.252641 ], [ 29.976173, 31.25262 ], [ 29.975689, 31.252512 ], [ 29.975056, 31.252261 ], [ 29.974665, 31.252049 ], [ 29.974381, 31.251857 ], [ 29.974043, 31.2516 ], [ 29.972783, 31.25314 ], [ 29.973113, 31.253602 ], [ 29.97334, 31.253862 ], [ 29.973569, 31.254086 ], [ 29.973695, 31.254188 ], [ 29.973984, 31.254348 ], [ 29.974144, 31.254405 ], [ 29.97431, 31.254445 ], [ 29.974654, 31.254471 ], [ 29.975061, 31.254478 ], [ 29.975505, 31.254535 ], [ 29.975954, 31.254653 ], [ 29.976231, 31.254873 ], [ 29.976241, 31.254898 ], [ 29.976214, 31.254942 ], [ 29.976155, 31.254944 ], [ 29.975908, 31.254839 ], [ 29.975828, 31.254823 ], [ 29.975665, 31.254823 ], [ 29.975391, 31.254751 ], [ 29.974675, 31.254697 ], [ 29.974241, 31.254631 ], [ 29.974029, 31.254568 ], [ 29.973828, 31.254482 ], [ 29.973642, 31.254375 ], [ 29.973324, 31.254123 ], [ 29.973047, 31.25384 ], [ 29.972303, 31.25283 ], [ 29.972036, 31.252542 ], [ 29.971625, 31.25218 ], [ 29.970991888557609, 31.251700386214356 ], [ 29.971057504238974, 31.251645552619728 ] ] } },
{ "type": "Feature", "properties": { "passengers_mpp": 648.0 }, "geometry": { "type": "LineString", "coordinates": [ [ 29.969375844967985, 31.249868025705371 ], [ 29.969282036574761, 31.249921027780704 ], [ 29.969123, 31.249677 ], [ 29.9689, 31.249405 ], [ 29.967615, 31.248203 ], [ 29.967364, 31.248028 ], [ 29.967008, 31.247833 ], [ 29.96681, 31.247697 ], [ 29.966628, 31.247546 ], [ 29.966465, 31.24738 ], [ 29.966188, 31.247012 ], [ 29.96501, 31.245213 ], [ 29.964835, 31.245005 ], [ 29.964628, 31.24482 ], [ 29.963962, 31.244359 ], [ 29.963354, 31.243874 ], [ 29.962958, 31.24351 ], [ 29.962618, 31.243164 ], [ 29.962418, 31.242993 ], [ 29.962094, 31.242787 ], [ 29.961908053788747, 31.242702890855707 ], [ 29.961953603478534, 31.242613216708992 ] ] } },
{ "type": "Feature", "properties": { "passengers_mpp": 220.0 }, "geometry": { "type": "LineString", "coordinates": [ [ 29.969375844967985, 31.249868025705371 ], [ 29.969469653361202, 31.249815023600299 ], [ 29.969701, 31.250246 ], [ 29.96993, 31.250557 ], [ 29.970904644078264, 31.249890838875242 ] ] } },
{ "type": "Feature", "properties": { "passengers_mpp": 704.0 }, "geometry": { "type": "LineString", "coordinates": [ [ 29.961953603478534, 31.242613216708992 ], [ 29.961908053788747, 31.242702890855707 ], [ 29.96115, 31.24236 ], [ 29.96075, 31.242127 ], [ 29.960399, 31.241842 ], [ 29.959984, 31.241359 ], [ 29.959880536329994, 31.241257297413732 ], [ 29.959954867744198, 31.241213232369102 ] ] } },
{ "type": "Feature", "properties": { "passengers_mpp": 667.0 }, "geometry": { "type": "LineString", "coordinates": [ [ 29.959954867744198, 31.241213232369102 ], [ 29.959880536329994, 31.241257297413732 ], [ 29.959749, 31.241128 ], [ 29.959602, 31.241019 ], [ 29.959314, 31.240864 ], [ 29.959149, 31.240806 ], [ 29.958977, 31.240767 ], [ 29.9588, 31.240748 ], [ 29.958622, 31.240749 ], [ 29.958446, 31.240769 ], [ 29.958274, 31.240809 ], [ 29.95811, 31.240867 ], [ 29.957956, 31.240944 ], [ 29.957702, 31.241106 ], [ 29.957575, 31.241156 ], [ 29.95744, 31.241184 ], [ 29.957327, 31.24119 ], [ 29.957097, 31.241154 ], [ 29.956888, 31.241063 ], [ 29.955728, 31.240228 ], [ 29.9545, 31.239428 ], [ 29.954281, 31.239271 ], [ 29.954171, 31.239174 ], [ 29.953979, 31.23896 ], [ 29.953827, 31.238724 ], [ 29.953525, 31.238047 ], [ 29.953357, 31.237799 ], [ 29.953136, 31.237551 ], [ 29.952879, 31.237332 ], [ 29.952589, 31.237144 ], [ 29.952229, 31.236975 ], [ 29.951928, 31.23688 ], [ 29.951572, 31.236806 ], [ 29.951044, 31.236759 ], [ 29.950887, 31.236725 ], [ 29.950737, 31.23667 ], [ 29.950604, 31.236599 ], [ 29.950354, 31.23641 ], [ 29.950122, 31.236206 ], [ 29.949963, 31.236115 ], [ 29.94744, 31.234239 ], [ 29.946538, 31.233351 ], [ 29.94607630237784, 31.232833464367545 ], [ 29.946159132609225, 31.232773751689876 ] ] } },
{ "type": "Feature", "properties": { "passengers_mpp": 549.0 }, "geometry": { "type": "LineString", "coordinates": [ [ 29.946159132609225, 31.232773751689876 ], [ 29.94607630237784, 31.232833464367545 ], [ 29.945645, 31.23235 ], [ 29.945323, 31.231946 ], [ 29.944403479046414, 31.231031104403321 ], [ 29.944407719623083, 31.2310360291577 ] ] } },
{ "type": "Feature", "properties": { "passengers_mpp": 667.0 }, "geometry": { "type": "LineString", "coordinates": [ [ 29.944407719623083, 31.2310360291577 ], [ 29.944403479046414, 31.231031104403321 ], [ 29.942050508626732, 31.22868996985094 ], [ 29.942065878716139, 31.228672742106362 ] ] } },
{ "type": "Feature", "properties": { "passengers_mpp": 803.0 }, "geometry": { "type": "LineString", "coordinates": [ [ 29.942065878716139, 31.228672742106362 ], [ 29.942050508626732, 31.22868996985094 ], [ 29.941347, 31.22799 ], [ 29.94123, 31.227912 ], [ 29.9411, 31.227849 ], [ 29.940962, 31.227804 ], [ 29.939975255441979, 31.227723634827083 ], [ 29.93998074448681, 31.227715984951288 ] ] } },
{ "type": "Feature", "properties": { "passengers_mpp": 844.0 }, "geometry": { "type": "LineString", "coordinates": [ [ 29.93998074448681, 31.227715984951288 ], [ 29.939975255441979, 31.227723634827083 ], [ 29.93955, 31.227689 ], [ 29.938677, 31.227379 ], [ 29.938278, 31.227199 ], [ 29.93782, 31.226926 ], [ 29.937037, 31.226352 ], [ 29.936406, 31.225837 ], [ 29.935738, 31.225178 ], [ 29.934004, 31.223732 ], [ 29.932894, 31.222833 ], [ 29.93018, 31.220785 ], [ 29.929871, 31.220507 ], [ 29.929274, 31.220153 ], [ 29.928755, 31.219823 ], [ 29.927891, 31.219382 ], [ 29.927553, 31.219172 ], [ 29.925194, 31.217512 ], [ 29.924269, 31.216918 ], [ 29.92324, 31.216431 ], [ 29.922991, 31.216271 ], [ 29.922618, 31.215941 ], [ 29.922378, 31.21576 ], [ 29.922084, 31.215579 ], [ 29.921094, 31.215026 ], [ 29.919678, 31.214378 ], [ 29.919094, 31.214137 ], [ 29.91868, 31.213864 ], [ 29.917595, 31.212929 ], [ 29.916832, 31.212314 ], [ 29.916421, 31.212057 ], [ 29.916186, 31.211966 ], [ 29.915007, 31.211602 ], [ 29.913609, 31.211207 ], [ 29.913323, 31.211105 ], [ 29.911884, 31.210378 ], [ 29.91174, 31.210323 ], [ 29.911422894926826, 31.210245905647341 ], [ 29.911456675694385, 31.210134889041292 ] ] } },
{ "type": "Feature", "properties": { "passengers_mpp": 215.0 }, "geometry": { "type": "LineString", "coordinates": [ [ 29.911456675694385, 31.210134889041292 ], [ 29.911490456461948, 31.210023872304888 ], [ 29.911516, 31.21003 ], [ 29.911843, 31.21014 ], [ 29.911954, 31.210132 ], [ 29.912067, 31.210104 ], [ 29.912152, 31.210048 ], [ 29.912217, 31.209974 ], [ 29.912758, 31.208773 ], [ 29.912867993075395, 31.208542098505852 ] ] } },
{ "type": "Feature", "properties": { "passengers_mpp": 377.0 }, "geometry": { "type": "LineString", "coordinates": [ [ 29.911456675694385, 31.210134889041292 ], [ 29.911422894926826, 31.210245905647341 ], [ 29.911304, 31.210217 ], [ 29.909929, 31.210083 ], [ 29.909637, 31.210039 ], [ 29.909352, 31.209974 ], [ 29.909073, 31.20989 ], [ 29.908813180431803, 31.209794017272529 ], [ 29.908827428545187, 31.209699565546728 ] ] } },
{ "type": "Feature", "properties": { "passengers_mpp": 206.0 }, "geometry": { "type": "LineString", "coordinates": [ [ 29.912867993075395, 31.208542098505852 ], [ 29.913413, 31.207398 ], [ 29.913865138549543, 31.206405318014642 ] ] } },
{ "type": "Feature", "properties": { "passengers_mpp": 188.0 }, "geometry": { "type": "LineString", "coordinates": [ [ 29.913865138549543, 31.206405318014642 ], [ 29.91462, 31.204748 ], [ 29.914616, 31.20465 ], [ 29.914633, 31.204553 ], [ 29.915643, 31.202269 ], [ 29.915656, 31.202177 ], [ 29.915647, 31.202085 ], [ 29.915617, 31.201996 ], [ 29.915482, 31.201782 ], [ 29.914656, 31.201408 ], [ 29.914347, 31.201228 ], [ 29.914304, 31.201166 ], [ 29.91429, 31.201095 ], [ 29.91431, 31.201022 ], [ 29.914352, 31.200989 ], [ 29.914433, 31.200959 ], [ 29.914521, 31.20096 ], [ 29.914907, 31.201106 ], [ 29.915616, 31.201456 ], [ 29.915734, 31.201447 ], [ 29.915841, 31.201407 ], [ 29.915929, 31.20134 ], [ 29.915987, 31.201252 ], [ 29.916112451461849, 31.200804666497895 ], [ 29.916276573750547, 31.200812175134505 ] ] } },
{ "type": "Feature", "properties": { "passengers_mpp": 15.0 }, "geometry": { "type": "LineString", "coordinates": [ [ 29.916276573750547, 31.200812175134505 ], [ 29.916390237356534, 31.200816243318897 ], [ 29.916279, 31.201395 ], [ 29.916259, 31.201602 ], [ 29.916325, 31.201824 ], [ 29.916671, 31.201984 ], [ 29.917108, 31.202159 ], [ 29.918156364465741, 31.202567627683131 ], [ 29.918111230141371, 31.202648358169164 ] ] } },
{ "type": "Feature", "properties": { "passengers_mpp": 624.0 }, "geometry": { "type": "LineString", "coordinates": [ [ 29.908014507835528, 31.207149030713349 ], [ 29.912426, 31.203771 ], [ 29.914619, 31.204751 ], [ 29.915714, 31.202323 ], [ 29.915889, 31.201872 ], [ 29.916192865440955, 31.2008129276498 ], [ 29.916276573750547, 31.200812175134505 ] ] } },
{ "type": "Feature", "properties": { "passengers_mpp": 297.0 }, "geometry": { "type": "LineString", "coordinates": [ [ 29.9043315, 31.193588250409899 ], [ 29.904207, 31.193874 ], [ 29.904097, 31.194108 ], [ 29.9082, 31.195624 ], [ 29.909224, 31.196022 ], [ 29.910258, 31.196614 ], [ 29.911435, 31.197209 ], [ 29.910995, 31.197983 ], [ 29.910208, 31.199445 ], [ 29.909773, 31.200289 ], [ 29.909419, 31.200909 ], [ 29.909023, 31.201751 ], [ 29.908112, 31.201324 ], [ 29.907917, 31.201662 ], [ 29.907881, 31.2017 ], [ 29.907758, 31.201745 ], [ 29.907586, 31.201734 ], [ 29.9072, 31.202673 ], [ 29.907046232418825, 31.203080199335318 ], [ 29.907044993661337, 31.203079885480996 ] ] } },
{ "type": "Feature", "properties": { "passengers_mpp": 52.0 }, "geometry": { "type": "LineString", "coordinates": [ [ 29.886385490263336, 31.183529396539871 ], [ 29.88628, 31.183292 ], [ 29.886165, 31.182692 ], [ 29.886087, 31.182545 ], [ 29.88603, 31.182482 ], [ 29.885946, 31.182413 ], [ 29.885394, 31.182081 ], [ 29.88504, 31.181892 ], [ 29.884821, 31.181795 ], [ 29.884785348026433, 31.181782586524058 ] ] } },
{ "type": "Feature", "properties": { "passengers_mpp": 36.0 }, "geometry": { "type": "LineString", "coordinates": [ [ 29.884785348026433, 31.181782586524058 ], [ 29.883003, 31.181162 ], [ 29.882902, 31.18111 ], [ 29.882805, 31.181034 ], [ 29.882731, 31.180944 ], [ 29.882595510273251, 31.180739646687364 ] ] } },
{ "type": "Feature", "properties": { "passengers_mpp": 74.0 }, "geometry": { "type": "LineString", "coordinates": [ [ 29.882595510273251, 31.180739646687364 ], [ 29.882186, 31.180122 ], [ 29.881988, 31.179884 ], [ 29.881280627850746, 31.178794433863988 ] ] } },
{ "type": "Feature", "properties": { "passengers_mpp": 74.0 }, "geometry": { "type": "LineString", "coordinates": [ [ 29.881280627850746, 31.178794433863988 ], [ 29.880859, 31.178145 ], [ 29.880665, 31.177878 ], [ 29.880549, 31.177766 ], [ 29.879798, 31.177261 ], [ 29.877565, 31.175825 ], [ 29.877161, 31.175526 ], [ 29.87492761268765, 31.173432199394664 ] ] } },
{ "type": "Feature", "properties": { "passengers_mpp": 74.0 }, "geometry": { "type": "LineString", "coordinates": [ [ 29.87492761268765, 31.173432199394664 ], [ 29.874601, 31.173126 ], [ 29.874137, 31.17271 ], [ 29.873671, 31.172245 ], [ 29.873115480271199, 31.171727293425906 ] ] } },
{ "type": "Feature", "properties": { "passengers_mpp": 284.0 }, "geometry": { "type": "LineString", "coordinates": [ [ 29.873115480271199, 31.171727293425906 ], [ 29.870674, 31.169452 ], [ 29.866016, 31.165394 ], [ 29.865641, 31.165085 ], [ 29.865149, 31.164736 ], [ 29.865004, 31.164655 ], [ 29.861511, 31.163181 ], [ 29.86031, 31.162699 ], [ 29.860097, 31.162596 ], [ 29.859249, 31.161943 ], [ 29.858414, 31.161247 ], [ 29.85494, 31.158453 ], [ 29.853816, 31.157523 ], [ 29.850445, 31.154782 ], [ 29.848916, 31.153568 ], [ 29.84841, 31.153285 ], [ 29.847874, 31.153032 ], [ 29.846577, 31.154155 ], [ 29.846473, 31.15421 ], [ 29.846359, 31.154249 ], [ 29.846167, 31.154274 ], [ 29.84607, 31.154269 ], [ 29.845883, 31.154225 ], [ 29.844698, 31.153619 ], [ 29.843719, 31.153034 ], [ 29.843417, 31.152815 ], [ 29.842826, 31.152256 ], [ 29.841898, 31.151264 ], [ 29.841694, 31.15093 ], [ 29.841605, 31.150733 ], [ 29.841484, 31.150392 ], [ 29.841444, 31.150208 ], [ 29.841358, 31.150033 ], [ 29.841231, 31.149877 ], [ 29.840059, 31.148987 ], [ 29.839944, 31.148877 ], [ 29.839765, 31.148625 ], [ 29.839641, 31.148388 ], [ 29.83948, 31.147925 ], [ 29.839324, 31.14759 ], [ 29.838788, 31.146685 ], [ 29.838104, 31.145653 ], [ 29.837898, 31.145389 ], [ 29.837736, 31.145247 ], [ 29.837478, 31.145079 ], [ 29.837314, 31.145004 ], [ 29.836243, 31.144634 ], [ 29.83488, 31.144111 ], [ 29.834353, 31.143898 ], [ 29.833977, 31.143681 ], [ 29.831004, 31.14136 ], [ 29.828135, 31.139081 ], [ 29.827243, 31.138412 ], [ 29.827095, 31.138324 ], [ 29.826935, 31.138254 ], [ 29.826579, 31.138143 ], [ 29.824771, 31.137585 ], [ 29.824589, 31.137547 ], [ 29.824414, 31.137492 ], [ 29.824247, 31.13742 ], [ 29.824073, 31.137319 ], [ 29.824782, 31.136364 ], [ 29.824289, 31.136093 ], [ 29.820245, 31.13444 ], [ 29.820101, 31.134353 ], [ 29.819869, 31.134174 ], [ 29.819045, 31.13345 ], [ 29.818852, 31.133327 ], [ 29.818517, 31.133217 ], [ 29.817185, 31.132954 ], [ 29.816547, 31.13275 ], [ 29.81606, 31.132542 ], [ 29.81504, 31.131933 ], [ 29.81463, 31.131755 ], [ 29.814449, 31.131742 ], [ 29.814341, 31.13178 ], [ 29.814259, 31.131851 ], [ 29.812621, 31.129894 ], [ 29.812623, 31.129799 ], [ 29.812689, 31.129723 ], [ 29.813518, 31.129156 ], [ 29.813589, 31.129077 ], [ 29.813637, 31.128986 ], [ 29.81366, 31.128888 ], [ 29.813658, 31.128788 ], [ 29.813629, 31.128691 ], [ 29.813575, 31.128603 ], [ 29.813126, 31.12802 ], [ 29.812851, 31.127749 ], [ 29.811956, 31.127097 ], [ 29.810855526637848, 31.126338027904733 ] ] } },
{ "type": "Feature", "properties": { "passengers_mpp": 284.0 }, "geometry": { "type": "LineString", "coordinates": [ [ 29.810855526637848, 31.126338027904733 ], [ 29.810435, 31.126048 ], [ 29.809849, 31.125661 ], [ 29.809151, 31.125169 ], [ 29.808797379357362, 31.124879804170789 ] ] } },
{ "type": "Feature", "properties": { "passengers_mpp": 284.0 }, "geometry": { "type": "LineString", "coordinates": [ [ 29.808797379357362, 31.124879804170789 ], [ 29.808657, 31.124765 ], [ 29.806768, 31.123132 ], [ 29.806399, 31.12283 ], [ 29.805625, 31.122257 ], [ 29.804683, 31.121635 ], [ 29.801801, 31.119969 ], [ 29.800316, 31.11899 ], [ 29.799507, 31.118428 ], [ 29.799187, 31.118237 ], [ 29.79884, 31.118085 ], [ 29.798238, 31.117869 ], [ 29.797914, 31.117722 ], [ 29.797579, 31.117526 ], [ 29.796973727959333, 31.117115252008237 ] ] } },
{ "type": "Feature", "properties": { "passengers_mpp": 80.0 }, "geometry": { "type": "LineString", "coordinates": [ [ 29.796973727959333, 31.117115252008237 ], [ 29.796798, 31.116996 ], [ 29.795527, 31.115832 ], [ 29.795122569659249, 31.115478955232696 ], [ 29.795122459370983, 31.115479078284324 ] ] } },
{ "type": "Feature", "properties": { "passengers_mpp": 36.0 }, "geometry": { "type": "LineString", "coordinates": [ [ 29.795122459370983, 31.115479078284324 ], [ 29.795122569659249, 31.115478955232696 ], [ 29.794433, 31.114877 ], [ 29.792851, 31.113666 ], [ 29.792730106807202, 31.113570656399496 ] ] } },
{ "type": "Feature", "properties": { "passengers_mpp": 44.0 }, "geometry": { "type": "LineString", "coordinates": [ [ 29.795122459370983, 31.115479078284324 ], [ 29.79512234908271, 31.115479201335926 ], [ 29.794731, 31.115138 ], [ 29.794639, 31.11512 ], [ 29.794504, 31.115057 ], [ 29.794451, 31.115058 ], [ 29.794406, 31.115077 ], [ 29.786437, 31.121234 ], [ 29.783777, 31.123339 ], [ 29.783668, 31.123449 ], [ 29.783495, 31.123662 ], [ 29.781724, 31.126225 ], [ 29.781476, 31.126614 ], [ 29.781289, 31.127019 ], [ 29.781119, 31.127768 ], [ 29.781064, 31.127922 ], [ 29.781203, 31.128161 ], [ 29.781385, 31.128345 ], [ 29.782326, 31.129202 ], [ 29.78252, 31.129426 ], [ 29.782648, 31.129623 ], [ 29.782814, 31.129944 ], [ 29.783429, 31.131482 ], [ 29.783609, 31.132021 ], [ 29.783831, 31.132828 ], [ 29.783862, 31.133069 ], [ 29.783866, 31.133305 ], [ 29.783813, 31.133663 ], [ 29.783402, 31.134764 ], [ 29.783288, 31.134676 ], [ 29.783544, 31.133957 ], [ 29.783648, 31.133615 ], [ 29.783706, 31.133261 ] ] } },
{ "type": "Feature", "properties": { "passengers_mpp": 36.0 }, "geometry": { "type": "LineString", "coordinates": [ [ 29.792730106807202, 31.113570656399496 ], [ 29.791687, 31.112748 ], [ 29.790917, 31.112205 ], [ 29.790706605736872, 31.112061357787866 ] ] } },
{ "type": "Feature", "properties": { "passengers_mpp": 0.0 }, "geometry": { "type": "LineString", "coordinates": [ [ 29.790706605736872, 31.112061357787866 ], [ 29.78907, 31.110944 ], [ 29.783931, 31.107664 ], [ 29.782041, 31.106428 ], [ 29.779804, 31.104881 ], [ 29.778965, 31.104277 ], [ 29.778526, 31.103911 ], [ 29.777796, 31.103255 ], [ 29.777449, 31.102967 ], [ 29.776966, 31.102609 ], [ 29.776608, 31.10237 ], [ 29.775857, 31.101933 ], [ 29.77402, 31.100961 ], [ 29.773721, 31.100786 ], [ 29.773322926670037, 31.100521367447318 ] ] } },
{ "type": "Feature", "properties": { "passengers_mpp": 0.0 }, "geometry": { "type": "LineString", "coordinates": [ [ 29.773322926670037, 31.100521367447318 ], [ 29.77319, 31.100433 ], [ 29.772704, 31.100078 ], [ 29.772231, 31.099707 ], [ 29.771776, 31.09932 ], [ 29.771363295019945, 31.098938859454371 ] ] } },
{ "type": "Feature", "properties": { "passengers_mpp": 0.0 }, "geometry": { "type": "LineString", "coordinates": [ [ 29.771363295019945, 31.098938859454371 ], [ 29.771253, 31.098837 ], [ 29.769055, 31.096902 ], [ 29.76854, 31.096467 ], [ 29.768259, 31.096254 ], [ 29.767651, 31.095838 ], [ 29.766241, 31.094929 ], [ 29.765282, 31.094371 ], [ 29.76488, 31.094194 ], [ 29.764079, 31.093924 ], [ 29.763769, 31.093833 ], [ 29.761673684581247, 31.093244509885857 ] ] } },
{ "type": "Feature", "properties": { "passengers_mpp": 0.0 }, "geometry": { "type": "LineString", "coordinates": [ [ 29.761673684581247, 31.093244509885857 ], [ 29.760885, 31.093023 ], [ 29.760243, 31.092779 ], [ 29.759598, 31.092483 ], [ 29.759220250704388, 31.092292686855252 ] ] } },
{ "type": "Feature", "properties": { "passengers_mpp": 0.0 }, "geometry": { "type": "LineString", "coordinates": [ [ 29.759220250704388, 31.092292686855252 ], [ 29.756972, 31.09116 ], [ 29.754361, 31.089791 ], [ 29.752421, 31.088659 ], [ 29.747799, 31.086359 ], [ 29.746182, 31.085475 ], [ 29.740859, 31.082403 ], [ 29.740561, 31.082211 ], [ 29.740113, 31.081894 ], [ 29.739094, 31.081086 ], [ 29.73858, 31.080716 ], [ 29.737698, 31.080114 ] ] } },
{ "type": "Feature", "properties": { "passengers_mpp": 123.0 }, "geometry": { "type": "LineString", "coordinates": [ [ 29.943958, 31.219495 ], [ 29.944284, 31.219719 ], [ 29.944597, 31.219407 ], [ 29.944836, 31.219324 ], [ 29.945292, 31.219195 ], [ 29.945357, 31.219186 ], [ 29.945414, 31.219196 ], [ 29.945706877500751, 31.218911512219321 ] ] } },
{ "type": "Feature", "properties": { "passengers_mpp": 123.0 }, "geometry": { "type": "LineString", "coordinates": [ [ 29.945706877500751, 31.218911512219321 ], [ 29.946566, 31.218077 ], [ 29.946209452848436, 31.217002616080205 ] ] } },
{ "type": "Feature", "properties": { "passengers_mpp": 141.0 }, "geometry": { "type": "LineString", "coordinates": [ [ 29.946209452848436, 31.217002616080205 ], [ 29.945787796514409, 31.215732038589962 ] ] } },
{ "type": "Feature", "properties": { "passengers_mpp": 147.0 }, "geometry": { "type": "LineString", "coordinates": [ [ 29.945787796514409, 31.215732038589962 ], [ 29.945739, 31.215585 ], [ 29.945674, 31.215427 ], [ 29.945547, 31.215147 ], [ 29.94548, 31.21504 ], [ 29.945402, 31.214939 ], [ 29.945243, 31.214829 ], [ 29.945143, 31.214678 ], [ 29.945123, 31.214614 ], [ 29.945121, 31.214455 ], [ 29.945175, 31.214313 ], [ 29.9453, 31.214178 ], [ 29.945394, 31.214122 ], [ 29.9455, 31.214083 ], [ 29.945664, 31.214064 ], [ 29.945828, 31.214087 ], [ 29.945927, 31.214125 ], [ 29.946014, 31.214178 ], [ 29.946088, 31.214245 ], [ 29.946183, 31.214273 ], [ 29.946315, 31.214259 ], [ 29.94683995558265, 31.214103286625743 ] ] } },
{ "type": "Feature", "properties": { "passengers_mpp": 147.0 }, "geometry": { "type": "LineString", "coordinates": [ [ 29.94683995558265, 31.214103286625743 ], [ 29.953479, 31.212134 ], [ 29.954836, 31.211776 ], [ 29.956471777716299, 31.211301075454777 ] ] } },
{ "type": "Feature", "properties": { "passengers_mpp": 162.0 }, "geometry": { "type": "LineString", "coordinates": [ [ 29.956471777716299, 31.211301075454777 ], [ 29.957309, 31.211058 ], [ 29.958989783980549, 31.21055290795325 ] ] } },
{ "type": "Feature", "properties": { "passengers_mpp": 162.0 }, "geometry": { "type": "LineString", "coordinates": [ [ 29.958989783980549, 31.21055290795325 ], [ 29.961036, 31.209938 ], [ 29.961679, 31.209711 ], [ 29.962442, 31.209399 ], [ 29.963443, 31.208904 ], [ 29.963953, 31.208584 ], [ 29.96563, 31.207453 ], [ 29.965907, 31.20736 ], [ 29.96617, 31.207219 ], [ 29.968412, 31.205676 ], [ 29.969247744571462, 31.205092759686401 ] ] } },
{ "type": "Feature", "properties": { "passengers_mpp": 162.0 }, "geometry": { "type": "LineString", "coordinates": [ [ 29.969247744571462, 31.205092759686401 ], [ 29.969726, 31.204759 ], [ 29.970247, 31.204378 ], [ 29.970617, 31.204148 ], [ 29.971017, 31.203959 ], [ 29.971056275234066, 31.203945383350455 ] ] } },
{ "type": "Feature", "properties": { "passengers_mpp": 156.0 }, "geometry": { "type": "LineString", "coordinates": [ [ 29.971056275234066, 31.203945383350455 ], [ 29.971441, 31.203812 ], [ 29.971673, 31.203751 ], [ 29.97215, 31.203663 ], [ 29.972391, 31.203635 ], [ 29.972878, 31.203615 ], [ 29.975013, 31.203609 ], [ 29.975296, 31.203641 ], [ 29.975563, 31.203725 ], [ 29.978983, 31.203746 ], [ 29.983033, 31.203729 ], [ 29.985957, 31.203699 ], [ 29.986524, 31.203653 ], [ 29.987617, 31.203516 ], [ 29.988627, 31.203478 ], [ 29.9895, 31.203465 ], [ 29.991375, 31.203486 ], [ 29.992512, 31.203563 ], [ 29.993349, 31.203577 ], [ 29.993773526722787, 31.203571562329259 ], [ 29.994710333030653, 31.203384009093462 ] ] } },
{ "type": "Feature", "properties": { "passengers_mpp": 114.0 }, "geometry": { "type": "LineString", "coordinates": [ [ 29.994710333030653, 31.203384009093462 ], [ 29.99459970198426, 31.204647518922709 ], [ 29.994499, 31.206046 ], [ 29.99444, 31.207297 ], [ 29.994282, 31.208927 ], [ 29.993763, 31.211763 ], [ 29.993668, 31.212717 ], [ 29.993671, 31.213107 ], [ 29.993728, 31.213495 ], [ 29.994221, 31.216088 ], [ 29.994102, 31.217428 ] ] } },
{ "type": "Feature", "properties": { "passengers_mpp": 330.0 }, "geometry": { "type": "LineString", "coordinates": [ [ 29.9983175, 31.241265000021684 ], [ 29.99832, 31.241201 ], [ 29.993728932852655, 31.241010920974837 ], [ 29.993727131277481, 31.240967497676046 ] ] } },
{ "type": "Feature", "properties": { "passengers_mpp": 130.0 }, "geometry": { "type": "LineString", "coordinates": [ [ 29.993727131277481, 31.240967497676046 ], [ 29.993728932852655, 31.241010920974837 ], [ 29.993441, 31.240999 ], [ 29.993342, 31.241008 ], [ 29.99311, 31.241064 ], [ 29.992859, 31.241167 ], [ 29.992797, 31.241229 ], [ 29.992605, 31.241317 ], [ 29.992497, 31.241591 ], [ 29.992449974745167, 31.242155859569952 ], [ 29.992415955062768, 31.242564499242508 ] ] } },
{ "type": "Feature", "properties": { "passengers_mpp": 205.0 }, "geometry": { "type": "LineString", "coordinates": [ [ 29.991048623894606, 31.240838887593334 ], [ 29.99108, 31.24084 ], [ 29.99171, 31.240841 ], [ 29.991949, 31.240797 ], [ 29.99217, 31.240708 ], [ 29.992267, 31.240637 ], [ 29.992383, 31.240593 ], [ 29.992509, 31.24058 ], [ 29.992606, 31.240591 ], [ 29.992698, 31.24062 ], [ 29.992779, 31.240666 ], [ 29.992847, 31.240726 ], [ 29.993113, 31.240852 ], [ 29.993329, 31.240904 ], [ 29.993725329702304, 31.240924074357302 ], [ 29.993727131277481, 31.240967497676046 ] ] } },
{ "type": "Feature", "properties": { "passengers_mpp": 130.0 }, "geometry": { "type": "LineString", "coordinates": [ [ 29.992415955062768, 31.242564499242508 ], [ 29.992381935380369, 31.242973137147047 ], [ 29.992328, 31.243621 ], [ 29.992303, 31.244091 ], [ 29.992556482832111, 31.245251476090743 ] ] } },
{ "type": "Feature", "properties": { "passengers_mpp": 125.0 }, "geometry": { "type": "LineString", "coordinates": [ [ 29.99136691698984, 31.246617138370755 ], [ 29.99101746848379, 31.246547166050973 ], [ 29.990112, 31.246206 ], [ 29.988575008547976, 31.245595179579055 ] ] } },
{ "type": "Feature", "properties": { "passengers_mpp": 125.0 }, "geometry": { "type": "LineString", "coordinates": [ [ 29.988575008547976, 31.245595179579055 ], [ 29.98787, 31.245315 ], [ 29.987757, 31.245353 ], [ 29.987658, 31.245412 ], [ 29.987579, 31.24549 ], [ 29.986758948275639, 31.247075339720556 ] ] } },
{ "type": "Feature", "properties": { "passengers_mpp": 120.0 }, "geometry": { "type": "LineString", "coordinates": [ [ 29.986758948275639, 31.247075339720556 ], [ 29.986411, 31.247748 ], [ 29.986295, 31.247851 ], [ 29.986275, 31.248146 ], [ 29.986285, 31.248294 ], [ 29.986273, 31.248418 ], [ 29.986237, 31.248539 ], [ 29.985894, 31.249092 ], [ 29.985815319298506, 31.249231345728344 ] ] } },
{ "type": "Feature", "properties": { "passengers_mpp": 120.0 }, "geometry": { "type": "LineString", "coordinates": [ [ 29.985815319298506, 31.249231345728344 ], [ 29.985466, 31.24985 ], [ 29.985304, 31.25015 ], [ 29.984791, 31.251233 ], [ 29.985084, 31.251386 ], [ 29.985184, 31.251505 ], [ 29.986381, 31.25222 ], [ 29.986712, 31.252434 ], [ 29.986782, 31.252518 ], [ 29.986823, 31.252616 ], [ 29.986832, 31.252719 ], [ 29.986808, 31.252821 ], [ 29.986624, 31.253258 ], [ 29.98635, 31.253531 ], [ 29.985660702712821, 31.254362371382861 ] ] } },
{ "type": "Feature", "properties": { "passengers_mpp": 530.0 }, "geometry": { "type": "LineString", "coordinates": [ [ 29.908827428545187, 31.209699565546728 ], [ 29.908813180431803, 31.209794017272529 ], [ 29.90802, 31.209501 ], [ 29.907651, 31.20932 ], [ 29.907433, 31.20916 ], [ 29.907317971892645, 31.208983178735359 ], [ 29.907183235939439, 31.208454304781728 ] ] } },
{ "type": "Feature", "properties": { "passengers_mpp": 581.0 }, "geometry": { "type": "LineString", "coordinates": [ [ 29.907183235939439, 31.208454304781728 ], [ 29.907317971892645, 31.208983178735359 ], [ 29.90664, 31.207941 ], [ 29.905996814795039, 31.207069643336769 ], [ 29.906070070425347, 31.207013778368982 ] ] } },
{ "type": "Feature", "properties": { "passengers_mpp": 600.0 }, "geometry": { "type": "LineString", "coordinates": [ [ 29.907183235939439, 31.208454304781728 ], [ 29.906992, 31.207932 ], [ 29.908014507835528, 31.207149030713349 ] ] } },
{ "type": "Feature", "properties": { "passengers_mpp": 744.0 }, "geometry": { "type": "LineString", "coordinates": [ [ 29.906070070425347, 31.207013778368982 ], [ 29.905996814795039, 31.207069643336769 ], [ 29.905893, 31.206929 ], [ 29.905588, 31.206554 ], [ 29.905327, 31.206237 ], [ 29.905019115407022, 31.205890685690047 ], [ 29.905683681559186, 31.205322116328603 ] ] } },
{ "type": "Feature", "properties": { "passengers_mpp": 355.0 }, "geometry": { "type": "LineString", "coordinates": [ [ 29.905683681559186, 31.205322116328603 ], [ 29.905019115407022, 31.205890685690047 ], [ 29.904638, 31.205462 ], [ 29.903901, 31.20474 ], [ 29.903498, 31.20436 ], [ 29.903292442929082, 31.204180740723356 ], [ 29.903600250425541, 31.204003060820735 ] ] } },
{ "type": "Feature", "properties": { "passengers_mpp": 514.0 }, "geometry": { "type": "LineString", "coordinates": [ [ 29.907044993661337, 31.203079885480996 ], [ 29.907046232418825, 31.203080199335318 ], [ 29.906606, 31.204246 ], [ 29.906203619479953, 31.205269331610534 ], [ 29.905683681559186, 31.205322116328603 ] ] } },
{ "type": "Feature", "properties": { "passengers_mpp": 493.0 }, "geometry": { "type": "LineString", "coordinates": [ [ 29.903600250425541, 31.204003060820735 ], [ 29.903292442929082, 31.204180740723356 ], [ 29.902646, 31.203617 ], [ 29.902228, 31.203281 ], [ 29.901487, 31.202733 ], [ 29.900659, 31.20223 ], [ 29.899995, 31.20186 ], [ 29.899588, 31.201658 ], [ 29.899192376401583, 31.20148757752683 ], [ 29.899323305677715, 31.201235595554582 ] ] } },
{ "type": "Feature", "properties": { "passengers_mpp": 478.0 }, "geometry": { "type": "LineString", "coordinates": [ [ 29.899323305677715, 31.201235595554582 ], [ 29.899192376401583, 31.20148757752683 ], [ 29.899003, 31.201406 ], [ 29.898436, 31.201185 ], [ 29.897981, 31.20103 ], [ 29.897692, 31.200945 ], [ 29.896961, 31.200765 ], [ 29.89667577171123, 31.200701294189315 ], [ 29.896700237023811, 31.200634527801885 ] ] } },
{ "type": "Feature", "properties": { "passengers_mpp": 431.0 }, "geometry": { "type": "LineString", "coordinates": [ [ 29.896700237023811, 31.200634527801885 ], [ 29.89667577171123, 31.200701294189315 ], [ 29.896567, 31.200677 ], [ 29.895853, 31.200568 ], [ 29.895458, 31.200521 ], [ 29.894375, 31.200446 ], [ 29.894091, 31.200439 ], [ 29.8936, 31.200451 ], [ 29.892933, 31.200495 ], [ 29.892246, 31.200569 ], [ 29.891905, 31.200622 ], [ 29.891108, 31.200768 ], [ 29.890443, 31.200929 ], [ 29.890081, 31.201028 ], [ 29.889342, 31.201297 ], [ 29.88879, 31.201539 ], [ 29.888183, 31.201831 ], [ 29.887645, 31.202173 ], [ 29.887312, 31.202417 ], [ 29.886473, 31.203123 ], [ 29.885596, 31.203984 ], [ 29.884989, 31.204666 ], [ 29.884386, 31.205444 ], [ 29.884025, 31.205974 ], [ 29.883341, 31.207084 ], [ 29.882501, 31.20894 ], [ 29.882234, 31.209475 ], [ 29.882132, 31.2099 ], [ 29.882157, 31.209966 ], [ 29.882136, 31.210009 ], [ 29.882084, 31.210038 ], [ 29.882022, 31.210034 ], [ 29.881979, 31.210005 ], [ 29.881837, 31.21001 ], [ 29.881767, 31.209999 ], [ 29.881695, 31.209968 ], [ 29.881176, 31.209989 ], [ 29.881533, 31.208713 ], [ 29.881949, 31.208818 ], [ 29.8821804, 31.209143000988046 ] ] } },
{ "type": "Feature", "properties": { "passengers_mpp": 12.0 }, "geometry": { "type": "LineString", "coordinates": [ [ 29.883164, 31.207272 ], [ 29.883403, 31.20681 ], [ 29.883672, 31.206352 ], [ 29.883948, 31.205919 ], [ 29.884616, 31.204967 ], [ 29.884936, 31.204557 ], [ 29.885494, 31.20391 ], [ 29.886389, 31.202981 ], [ 29.887106, 31.202357 ], [ 29.88762, 31.201988 ], [ 29.888306, 31.201605 ], [ 29.888942, 31.201303 ], [ 29.889306, 31.201157 ], [ 29.890322, 31.200824 ], [ 29.89107, 31.200635 ], [ 29.891871, 31.200478 ], [ 29.892574, 31.200377 ], [ 29.893545, 31.200298 ], [ 29.894374, 31.200302 ], [ 29.895333, 31.200361 ], [ 29.895876, 31.200423 ], [ 29.896724068506579, 31.200569089539563 ], [ 29.896700237023811, 31.200634527801885 ] ] } },
{ "type": "Feature", "properties": { "passengers_mpp": 140.0 }, "geometry": { "type": "LineString", "coordinates": [ [ 30.028111880903214, 31.265257653251364 ], [ 30.028225712555052, 31.265199314273101 ], [ 30.027617, 31.264086 ], [ 30.027463, 31.26385 ], [ 30.027235, 31.263582 ], [ 30.027055, 31.263414 ], [ 30.026913, 31.263314 ], [ 30.026845322715047, 31.263280161357525 ], [ 30.026929666977686, 31.263221936068096 ] ] } },
{ "type": "Feature", "properties": { "passengers_mpp": 0.0 }, "geometry": { "type": "LineString", "coordinates": [ [ 30.028111880903214, 31.265257653251364 ], [ 30.02769986048272, 31.265264849752906 ], [ 30.026527, 31.267694 ], [ 30.026315, 31.268022 ], [ 30.02529, 31.269189 ], [ 30.024799, 31.26971 ], [ 30.024565668514434, 31.26992129776173 ] ] } },
{ "type": "Feature", "properties": { "passengers_mpp": 200.0 }, "geometry": { "type": "LineString", "coordinates": [ [ 30.026929666977686, 31.263221936068096 ], [ 30.026845322715047, 31.263280161357525 ], [ 30.026565, 31.26314 ], [ 30.02641, 31.263078 ], [ 30.024837, 31.262659 ], [ 30.024601, 31.26258 ], [ 30.023912, 31.262289 ], [ 30.022359, 31.261553 ], [ 30.021746, 31.261229 ], [ 30.017576, 31.259191 ], [ 30.016280249253626, 31.258509260951367 ], [ 30.0163568972307, 31.258391701192135 ] ] } },
{ "type": "Feature", "properties": { "passengers_mpp": 55.0 }, "geometry": { "type": "LineString", "coordinates": [ [ 30.0163568972307, 31.258391701192135 ], [ 30.016280249253626, 31.258509260951367 ], [ 30.015835, 31.258275 ], [ 30.015397, 31.257962 ], [ 30.015151, 31.257748 ], [ 30.014986, 31.257742 ], [ 30.014853, 31.257754 ], [ 30.014599, 31.257825 ], [ 30.014378, 31.257953 ], [ 30.013960882835207, 31.258307125175957 ], [ 30.013924008297352, 31.258218790961358 ] ] } },
{ "type": "Feature", "properties": { "passengers_mpp": 190.0 }, "geometry": { "type": "LineString", "coordinates": [ [ 30.014419908764548, 31.256895752491353 ], [ 30.014534336985371, 31.256827162188621 ], [ 30.015446, 31.257635 ], [ 30.015868, 31.257951 ], [ 30.016382, 31.258249 ], [ 30.016433545207779, 31.258274141286496 ], [ 30.0163568972307, 31.258391701192135 ] ] } },
{ "type": "Feature", "properties": { "passengers_mpp": 270.0 }, "geometry": { "type": "LineString", "coordinates": [ [ 30.013924008297352, 31.258218790961358 ], [ 30.013960882835207, 31.258307125175957 ], [ 30.011577, 31.260331 ], [ 30.011416906631879, 31.260449728020529 ], [ 30.01134951073243, 31.260392001431072 ] ] } },
{ "type": "Feature", "properties": { "passengers_mpp": 200.0 }, "geometry": { "type": "LineString", "coordinates": [ [ 30.013924008297352, 31.258218790961358 ], [ 30.013887133759503, 31.258130456664116 ], [ 30.014043, 31.257999 ], [ 30.014227, 31.257828 ], [ 30.014316, 31.257715 ], [ 30.01438, 31.257592 ], [ 30.014424, 31.257463 ], [ 30.014445, 31.25733 ], [ 30.014444, 31.257196 ], [ 30.014421, 31.257063 ], [ 30.014305480543726, 31.256964342744226 ], [ 30.014419908764548, 31.256895752491353 ] ] } },
{ "type": "Feature", "properties": { "passengers_mpp": 1.0 }, "geometry": { "type": "LineString", "coordinates": [ [ 29.904263207243019, 31.191893521275546 ], [ 29.904317, 31.191925 ], [ 29.904412, 31.192031 ], [ 29.9045, 31.192224 ], [ 29.904492, 31.192307 ], [ 29.904077, 31.19318 ], [ 29.903972, 31.19337 ], [ 29.903871, 31.193673 ], [ 29.903803, 31.193997 ], [ 29.9082, 31.195624 ], [ 29.909224, 31.196022 ], [ 29.910258, 31.196614 ], [ 29.911435, 31.197209 ], [ 29.910995, 31.197983 ], [ 29.910208, 31.199445 ], [ 29.909773, 31.200289 ], [ 29.909419, 31.200909 ], [ 29.909023, 31.201751 ], [ 29.908112, 31.201324 ], [ 29.907917, 31.201662 ], [ 29.907881, 31.2017 ], [ 29.907758, 31.201745 ], [ 29.907586, 31.201734 ], [ 29.9072, 31.202673 ], [ 29.907046232418825, 31.203080199335318 ], [ 29.907044993661337, 31.203079885480996 ] ] } },
{ "type": "Feature", "properties": { "passengers_mpp": 15.0 }, "geometry": { "type": "LineString", "coordinates": [ [ 29.918111230141371, 31.202648358169164 ], [ 29.918066095817011, 31.202729088586292 ], [ 29.91785, 31.202648 ], [ 29.916405, 31.202112 ], [ 29.916085, 31.202029 ], [ 29.915776, 31.201919 ], [ 29.914864, 31.201504 ], [ 29.914508, 31.201643 ], [ 29.91408, 31.201899 ], [ 29.913347, 31.202427 ], [ 29.913249, 31.20246 ], [ 29.912473, 31.202486 ], [ 29.912175, 31.202457 ], [ 29.909277, 31.201843 ], [ 29.909023, 31.201751 ], [ 29.908112, 31.201324 ], [ 29.907917, 31.201662 ], [ 29.907881, 31.2017 ], [ 29.907758, 31.201745 ], [ 29.907586, 31.201734 ], [ 29.9072, 31.202673 ], [ 29.907043754903842, 31.20307957162667 ], [ 29.907044993661337, 31.203079885480996 ] ] } },
{ "type": "Feature", "properties": { "passengers_mpp": 365.0 }, "geometry": { "type": "LineString", "coordinates": [ [ 30.014419908764548, 31.256895752491353 ], [ 30.014305480543726, 31.256964342744226 ], [ 30.012359197424523, 31.255302155631782 ], [ 30.012473787709123, 31.255202487728695 ] ] } },
{ "type": "Feature", "properties": { "passengers_mpp": 0.0 }, "geometry": { "type": "LineString", "coordinates": [ [ 30.024565668514434, 31.26992129776173 ], [ 30.02356, 31.270832 ], [ 30.023467, 31.270751 ], [ 30.023559, 31.270659 ], [ 30.022662, 31.269919 ], [ 30.022639782416356, 31.269904679027412 ] ] } },
{ "type": "Feature", "properties": { "passengers_mpp": 0.0 }, "geometry": { "type": "LineString", "coordinates": [ [ 30.022639782416356, 31.269904679027412 ], [ 30.02233, 31.269705 ], [ 30.021008, 31.26904 ], [ 30.01868, 31.267928 ] ] } },
{ "type": "Feature", "properties": { "passengers_mpp": 250.0 }, "geometry": { "type": "LineString", "coordinates": [ [ 29.970904644078264, 31.249890838875242 ], [ 29.971614, 31.249406 ], [ 29.972674, 31.24855 ], [ 29.972994, 31.248258 ], [ 29.973296, 31.247953 ], [ 29.975017, 31.246032 ], [ 29.975709, 31.246305 ], [ 29.977057, 31.246889 ], [ 29.97765, 31.247191 ], [ 29.978397047878698, 31.247618439618492 ], [ 29.978886780542897, 31.247405233130419 ] ] } },
{ "type": "Feature", "properties": { "passengers_mpp": 250.0 }, "geometry": { "type": "LineString", "coordinates": [ [ 29.978886780542897, 31.247405233130419 ], [ 29.979376513207097, 31.247192026160945 ], [ 29.980349, 31.24647 ], [ 29.980837, 31.246127 ], [ 29.981725, 31.245412 ], [ 29.982369, 31.244818 ], [ 29.983496750544653, 31.243690249455334 ] ] } },
{ "type": "Feature", "properties": { "passengers_mpp": 175.0 }, "geometry": { "type": "LineString", "coordinates": [ [ 29.983496750544653, 31.243690249455334 ], [ 29.983714, 31.243473 ], [ 29.983801, 31.243451 ], [ 29.984506, 31.242874 ], [ 29.984644, 31.242697 ], [ 29.985260900887141, 31.242100929532434 ] ] } },
{ "type": "Feature", "properties": { "passengers_mpp": 205.0 }, "geometry": { "type": "LineString", "coordinates": [ [ 29.985260900887141, 31.242100929532434 ], [ 29.985799, 31.241581 ], [ 29.986051, 31.241368 ], [ 29.986314, 31.241176 ], [ 29.986679, 31.24099 ], [ 29.986939, 31.240895 ], [ 29.987436, 31.240759 ], [ 29.987718, 31.240734 ], [ 29.988062, 31.240733 ], [ 29.991048623894606, 31.240838887593334 ] ] } },
{ "type": "Feature", "properties": { "passengers_mpp": 39.0 }, "geometry": { "type": "LineString", "coordinates": [ [ 29.8058735, 31.009693500096308 ], [ 29.805924, 31.009558 ], [ 29.805762, 31.009725 ], [ 29.805702, 31.009763 ], [ 29.805527, 31.009657 ], [ 29.805001, 31.009396 ], [ 29.802329, 31.008115 ], [ 29.801989, 31.008448 ], [ 29.801684, 31.008507 ], [ 29.801407, 31.008826 ], [ 29.798871, 31.011522 ], [ 29.797572, 31.012791 ], [ 29.797125, 31.013299 ], [ 29.796948, 31.013543 ], [ 29.79679, 31.013831 ], [ 29.796601, 31.014253 ], [ 29.795462, 31.017226 ], [ 29.795249, 31.017732 ], [ 29.794197673865867, 31.020400226790414 ], [ 29.794088220717548, 31.020369303018722 ] ] } },
{ "type": "Feature", "properties": { "passengers_mpp": 899.0 }, "geometry": { "type": "LineString", "coordinates": [ [ 29.794088220717548, 31.020369303018722 ], [ 29.794197673865867, 31.020400226790414 ], [ 29.794169, 31.020473 ], [ 29.793687, 31.02175 ], [ 29.793388190647477, 31.022591143758383 ], [ 29.793268585850882, 31.022559021567513 ] ] } },
{ "type": "Feature", "properties": { "passengers_mpp": 860.0 }, "geometry": { "type": "LineString", "coordinates": [ [ 29.794088220717548, 31.020369303018722 ], [ 29.793978767569225, 31.020338379236993 ], [ 29.796461, 31.014075 ], [ 29.796625, 31.013747 ], [ 29.797011, 31.013173 ], [ 29.797302, 31.012824 ], [ 29.798221, 31.011924 ], [ 29.798135, 31.011311 ], [ 29.798102, 31.011172 ], [ 29.798002, 31.010941 ], [ 29.797906, 31.010835 ], [ 29.796837, 31.009961 ], [ 29.796431, 31.009657 ], [ 29.796337, 31.009602 ], [ 29.796172, 31.009577 ], [ 29.795682, 31.009731 ], [ 29.795602, 31.009731 ], [ 29.795112, 31.009664 ], [ 29.795029, 31.009642 ], [ 29.794953, 31.009602 ], [ 29.794887, 31.009503 ], [ 29.794876, 31.009368 ], [ 29.794907, 31.009284 ], [ 29.795136, 31.008985 ], [ 29.795182, 31.008886 ], [ 29.795173, 31.00873 ], [ 29.795102, 31.008629 ], [ 29.794608, 31.008228 ], [ 29.793676, 31.007516 ], [ 29.78912, 31.003953 ], [ 29.788396, 31.003458 ], [ 29.787665, 31.002983 ], [ 29.785412, 31.001647 ], [ 29.78536, 31.001559 ], [ 29.785359, 31.001512 ], [ 29.786108, 31.000553 ], [ 29.787885, 30.99821 ], [ 29.787913, 30.998225500001258 ] ] } },
{ "type": "Feature", "properties": { "passengers_mpp": 899.0 }, "geometry": { "type": "LineString", "coordinates": [ [ 29.793268585850882, 31.022559021567513 ], [ 29.793388190647477, 31.022591143758383 ], [ 29.793033, 31.023591 ], [ 29.792669, 31.024468 ], [ 29.79215, 31.025428 ], [ 29.791634, 31.026115 ], [ 29.790914, 31.026931 ], [ 29.789942, 31.027857 ], [ 29.789348, 31.028458 ], [ 29.787691, 31.029994 ], [ 29.786122, 31.031497 ], [ 29.785214, 31.032324 ], [ 29.784915, 31.032629 ], [ 29.784264, 31.033318 ], [ 29.783887, 31.033776 ], [ 29.783473, 31.034407 ], [ 29.783284, 31.034754 ], [ 29.782906, 31.035664 ], [ 29.78279, 31.036066 ], [ 29.782739957599954, 31.036329536899618 ], [ 29.782483856396535, 31.036316137303238 ] ] } },
{ "type": "Feature", "properties": { "passengers_mpp": 860.0 }, "geometry": { "type": "LineString", "coordinates": [ [ 29.782216680033851, 31.038578624304023 ], [ 29.782027588137979, 31.038555640832026 ], [ 29.78212, 31.037091 ], [ 29.782219, 31.036338 ], [ 29.782227755193119, 31.036302737704965 ], [ 29.782483856396535, 31.036316137303238 ] ] } },
{ "type": "Feature", "properties": { "passengers_mpp": 860.0 }, "geometry": { "type": "LineString", "coordinates": [ [ 29.782191890774119, 31.042871059020353 ], [ 29.78232083307476, 31.042797297446448 ], [ 29.782412, 31.04311 ], [ 29.782542, 31.043446 ], [ 29.782716, 31.043805 ], [ 29.782926, 31.044151 ], [ 29.783169, 31.044479 ], [ 29.783445, 31.044789 ], [ 29.783523442761549, 31.044863070542053 ], [ 29.783389265161436, 31.044904658117122 ] ] } },
{ "type": "Feature", "properties": { "passengers_mpp": 614.0 }, "geometry": { "type": "LineString", "coordinates": [ [ 29.927514347771162, 31.181856211596113 ], [ 29.927715321858514, 31.181865423317046 ], [ 29.927577, 31.182091 ], [ 29.926748, 31.183634 ], [ 29.926446, 31.184138 ], [ 29.924513756412725, 31.187736575103582 ], [ 29.924488409922425, 31.187699590462717 ] ] } },
{ "type": "Feature", "properties": { "passengers_mpp": 552.0 }, "geometry": { "type": "LineString", "coordinates": [ [ 29.927514347771162, 31.181856211596113 ], [ 29.927332893017969, 31.181837748370288 ], [ 29.927334, 31.181833 ], [ 29.927316, 31.181668 ], [ 29.927119, 31.180993 ], [ 29.92708, 31.180908 ], [ 29.926948, 31.18074 ], [ 29.926380545502024, 31.180296023600778 ] ] } },
{ "type": "Feature", "properties": { "passengers_mpp": 132.0 }, "geometry": { "type": "LineString", "coordinates": [ [ 29.915188, 31.180334 ], [ 29.915033, 31.180565 ], [ 29.915032, 31.180659 ], [ 29.91506, 31.180751 ], [ 29.91581, 31.1811 ], [ 29.916355, 31.181374 ], [ 29.916512, 31.181497 ], [ 29.916672, 31.181564 ], [ 29.917602, 31.182028 ], [ 29.917876, 31.182223 ], [ 29.918952, 31.182749 ], [ 29.919488, 31.182984 ], [ 29.9197, 31.183059 ], [ 29.921101, 31.183635 ], [ 29.923833, 31.184831 ], [ 29.925461, 31.185574 ], [ 29.926259, 31.184092 ], [ 29.926385, 31.183902 ], [ 29.926513, 31.183812 ], [ 29.926769, 31.183336 ], [ 29.926787, 31.183116 ], [ 29.927428, 31.181914 ], [ 29.927446045664528, 31.181855788178918 ], [ 29.927514347771162, 31.181856211596113 ] ] } },
{ "type": "Feature", "properties": { "passengers_mpp": 812.0 }, "geometry": { "type": "LineString", "coordinates": [ [ 29.924488409922425, 31.187699590462717 ], [ 29.924513756412725, 31.187736575103582 ], [ 29.92391, 31.188861 ], [ 29.923781, 31.189204 ], [ 29.923742579536516, 31.189381856527589 ], [ 29.923688939258131, 31.189394430002 ] ] } },
{ "type": "Feature", "properties": { "passengers_mpp": 33.0 }, "geometry": { "type": "LineString", "coordinates": [ [ 30.011408727388147, 31.281989611172325 ], [ 30.011352884631723, 31.281902160190775 ], [ 30.012474, 31.281613 ], [ 30.013251, 31.281429 ], [ 30.013902637103232, 31.28119211768951 ], [ 30.014327663959385, 31.28111060059863 ] ] } },
{ "type": "Feature", "properties": { "passengers_mpp": 860.0 }, "geometry": { "type": "LineString", "coordinates": [ [ 29.782191890774119, 31.042871059020353 ], [ 29.78206294847347, 31.04294482053708 ], [ 29.781988, 31.042646 ], [ 29.781918, 31.041976 ], [ 29.781924, 31.041005 ], [ 29.781981, 31.03954 ], [ 29.782014, 31.038771 ], [ 29.782027588137979, 31.038555640832026 ], [ 29.782216680033851, 31.038578624304023 ] ] } },
{ "type": "Feature", "properties": { "passengers_mpp": 552.0 }, "geometry": { "type": "LineString", "coordinates": [ [ 29.926380545502024, 31.180296023600778 ], [ 29.926323, 31.180251 ], [ 29.925895, 31.179931 ], [ 29.925522, 31.17971 ], [ 29.924484, 31.179249 ], [ 29.923458, 31.178814 ], [ 29.923231, 31.178674 ], [ 29.922375, 31.178348 ], [ 29.921289, 31.177912 ], [ 29.920859, 31.177761 ], [ 29.919696, 31.177273 ], [ 29.91868801819577, 31.176868827466098 ] ] } },
{ "type": "Feature", "properties": { "passengers_mpp": 552.0 }, "geometry": { "type": "LineString", "coordinates": [ [ 29.91868801819577, 31.176868827466098 ], [ 29.917227, 31.176283 ] ] } }
]
}
