{
"type": "FeatureCollection",
"name": "identified_routes",
"crs": { "type": "name", "properties": { "name": "urn:ogc:def:crs:OGC:1.3:CRS84" } },
"features": [
{ "type": "Feature", "properties": { "gid": "27", "id": "BxdwyvoroCHMWuwrDG8n0", "notes": ". ", "status": "accepted", "created_at": "23 Nov 2022 15:27:05 (UTC)", "bus_number": "13", "origin_name": "El-Mandara", "origin_name_local": "المندرة ", "destination_name": "Kilo 21", "destination_name_local": "الكيلو 21", "agency": "Bus" }, "geometry": { "type": "Point", "coordinates": [ 29.736606, 31.078655 ] } },
{ "type": "Feature", "properties": { "gid": "33", "id": "yka51J6taCTLj6BSJ5ZJY", "notes": null, "status": "accepted", "created_at": "15 Nov 2022 11:58:36 (UTC)", "bus_number": null, "origin_name": "El-Mawqaf El-Geded", "origin_name_local": "الموقف الجديد ", "destination_name": "Kilo 21", "destination_name_local": "الكيلو 21", "agency": "P_O_14" }, "geometry": { "type": "Point", "coordinates": [ 29.9153139, 31.1776657 ] } },
{ "type": "Feature", "properties": { "gid": "34", "id": "vlLApsGjfMDY9KXQF8cUT", "notes": null, "status": "accepted", "created_at": "15 Nov 2022 12:03:53 (UTC)", "bus_number": null, "origin_name": "El-Mawqaf El-Geded", "origin_name_local": "الموقف الجديد ", "destination_name": "Amreyya", "destination_name_local": "العامرية ", "agency": "P_O_14" }, "geometry": { "type": "Point", "coordinates": [ 29.9157895, 31.177395 ] } },
{ "type": "Feature", "properties": { "gid": "36", "id": "P7bxVhI-eBpM_gq6NPh4A", "notes": "طريق البحر ", "status": "accepted", "created_at": "14 Nov 2022 16:15:14 (UTC)", "bus_number": null, "origin_name": "Train Station (El-Shohada Square)", "origin_name_local": "المحطة (ميدان الشهداء)", "destination_name": "Asafra", "destination_name_local": "العصافره ", "agency": "P_O_14" }, "geometry": { "type": "Point", "coordinates": [ 29.9043767, 31.1918975 ] } },
{ "type": "Feature", "properties": { "gid": "37", "id": "1WsXumHRH291BQ51_E4Sc", "notes": null, "status": "accepted", "created_at": "14 Nov 2022 15:45:27 (UTC)", "bus_number": null, "origin_name": "Train Station (El-Shohada Square)", "origin_name_local": "المحطة (ميدان الشهداء)", "destination_name": "El-Mawqaf El-Geded", "destination_name_local": "الموقف الجديد ", "agency": "P_O_14" }, "geometry": { "type": "Point", "coordinates": [ 29.9037185, 31.1915077 ] } },
{ "type": "Feature", "properties": { "gid": "40", "id": "UAiH1mpm0-CH0nMF6dccJ", "notes": null, "status": "accepted", "created_at": "14 Nov 2022 15:48:53 (UTC)", "bus_number": null, "origin_name": "Train Station (El-Shohada Square)", "origin_name_local": "المحطة (ميدان الشهداء)", "destination_name": "El-Sa'ah (Clock Square)", "destination_name_local": "الساعة ", "agency": "P_O_14" }, "geometry": { "type": "Point", "coordinates": [ 29.9037282, 31.1915826 ] } },
{ "type": "Feature", "properties": { "gid": "41", "id": "szDssua1FcgsdfXnlvK9n", "notes": null, "status": "accepted", "created_at": "14 Nov 2022 17:02:21 (UTC)", "bus_number": "1", "origin_name": "Train Station (El-Shohada Square)", "origin_name_local": "المحطة (ميدان الشهداء)", "destination_name": "Abu Qir", "destination_name_local": "أبو قير", "agency": "Minibus" }, "geometry": { "type": "Point", "coordinates": [ 29.9039538, 31.194004 ] } },
{ "type": "Feature", "properties": { "gid": "42", "id": "5ZXJ8BhRaIfK9b03jUCHC", "notes": null, "status": "accepted", "created_at": "14 Nov 2022 15:47:48 (UTC)", "bus_number": null, "origin_name": "Train Station (El-Shohada Square)", "origin_name_local": "المحطة (ميدان الشهداء)", "destination_name": "El-Awayed", "destination_name_local": "العوايد ", "agency": "P_O_14" }, "geometry": { "type": "Point", "coordinates": [ 29.9038491, 31.1914861 ] } },
{ "type": "Feature", "properties": { "gid": "43", "id": "CGe1Jq4wO8E8SnQ3AaP-3", "notes": "بيدخل لحد الجمعية ", "status": "accepted", "created_at": "14 Nov 2022 14:52:51 (UTC)", "bus_number": null, "origin_name": "Train Station (El-Shohada Square)", "origin_name_local": "المحطة (ميدان الشهداء)", "destination_name": "Hanuvil", "destination_name_local": "الهانوفيل", "agency": "P_O_14" }, "geometry": { "type": "Point", "coordinates": [ 29.9028877, 31.1925736 ] } },
{ "type": "Feature", "properties": { "gid": "44", "id": "Ms-X9o7kTzpya2lXD8K8a", "notes": null, "status": "accepted", "created_at": "14 Nov 2022 14:12:15 (UTC)", "bus_number": null, "origin_name": "Bahary (Ras Al-Tin)", "origin_name_local": "بحري (راس التين)", "destination_name": "Train Station (El-Shohada Square)", "destination_name_local": "المحطة (ميدان الشهداء)", "agency": "P_O_14" }, "geometry": { "type": "Point", "coordinates": [ 29.8755218, 31.2020348 ] } },
{ "type": "Feature", "properties": { "gid": "46", "id": "u6d_1yu5kRuULJkoHNHKf", "notes": null, "status": "accepted", "created_at": "14 Nov 2022 13:45:23 (UTC)", "bus_number": null, "origin_name": "El-Mansheya", "origin_name_local": "المنشية ", "destination_name": "El-Sa'ah (Clock Square)", "destination_name_local": "الساعة ", "agency": "P_O_14" }, "geometry": { "type": "Point", "coordinates": [ 29.8945268, 31.1995963 ] } },
{ "type": "Feature", "properties": { "gid": "47", "id": "B2Jt5sTLxKuuVTObuWdOt", "notes": "من الدائري ", "status": "accepted", "created_at": "14 Nov 2022 13:41:14 (UTC)", "bus_number": null, "origin_name": "El-Mansheya", "origin_name_local": "المنشية ", "destination_name": "El-Awayed", "destination_name_local": "العوايد ", "agency": "P_O_14" }, "geometry": { "type": "Point", "coordinates": [ 29.8949206, 31.1996321 ] } },
{ "type": "Feature", "properties": { "gid": "48", "id": "rGNZ6vdyMy500urBeN-dv", "notes": null, "status": "accepted", "created_at": "15 Nov 2022 16:54:43 (UTC)", "bus_number": null, "origin_name": "Asafra", "origin_name_local": "العصافره ", "destination_name": "Sidi Bishr", "destination_name_local": "سيدي بشر ", "agency": "P_O_14" }, "geometry": { "type": "Point", "coordinates": [ 30.0062279, 31.2702406 ] } },
{ "type": "Feature", "properties": { "gid": "49", "id": "E-YPT6Ugiehp613EGf9gG", "notes": null, "status": "accepted", "created_at": "14 Nov 2022 13:36:02 (UTC)", "bus_number": null, "origin_name": "El-Mansheya", "origin_name_local": "المنشية ", "destination_name": "El-Awayed", "destination_name_local": "العوايد ", "agency": "P_O_14" }, "geometry": { "type": "Point", "coordinates": [ 29.8945195, 31.199614 ] } },
{ "type": "Feature", "properties": { "gid": "50", "id": "EtgMudwwTsPmHJvMiBfCa", "notes": null, "status": "accepted", "created_at": "15 Nov 2022 13:22:02 (UTC)", "bus_number": null, "origin_name": "El-Awayed", "origin_name_local": "العوايد ", "destination_name": "El-Mandara", "destination_name_local": "المندرة ", "agency": "P_O_14" }, "geometry": { "type": "Point", "coordinates": [ 29.9938568, 31.2195565 ] } },
{ "type": "Feature", "properties": { "gid": "51", "id": "Sd1h2_3b2lRdiwPIV6jW5", "notes": null, "status": "accepted", "created_at": "15 Nov 2022 12:53:48 (UTC)", "bus_number": "781", "origin_name": "El-Awayed", "origin_name_local": "العوايد ", "destination_name": "Sidi Gabir", "destination_name_local": "سيدي جابر ", "agency": "Bus" }, "geometry": { "type": "Point", "coordinates": [ 29.9935048, 31.2180163 ] } },
{ "type": "Feature", "properties": { "gid": "53", "id": "GHJC0kwR6gzJX3gp9fAbu", "notes": null, "status": "accepted", "created_at": "15 Nov 2022 12:53:20 (UTC)", "bus_number": "243", "origin_name": "El-Awayed", "origin_name_local": "العوايد ", "destination_name": "Sidi Gabir", "destination_name_local": "سيدي جابر ", "agency": "Bus" }, "geometry": { "type": "Point", "coordinates": [ 29.993851, 31.2179172 ] } },
{ "type": "Feature", "properties": { "gid": "56", "id": "VpWvhtuR0a-sAv8lVnU-J", "notes": null, "status": "accepted", "created_at": "14 Nov 2022 16:15:38 (UTC)", "bus_number": null, "origin_name": "Train Station (El-Shohada Square)", "origin_name_local": "المحطة (ميدان الشهداء)", "destination_name": "Sidi Bishr", "destination_name_local": "سيدي بشر ", "agency": "P_O_14" }, "geometry": { "type": "Point", "coordinates": [ 29.9043783, 31.1918996 ] } },
{ "type": "Feature", "properties": { "gid": "63", "id": "fLvuWmw2DEGB_qwoDK7S4", "notes": ".", "status": "accepted", "created_at": "17 Nov 2022 16:19:12 (UTC)", "bus_number": null, "origin_name": "Kilo 21", "origin_name_local": "الكيلو 21", "destination_name": "Train Station (El-Shohada Square)", "destination_name_local": "المحطة (ميدان الشهداء)", "agency": "P_O_14" }, "geometry": { "type": "Point", "coordinates": [ 29.7328567, 31.0770753 ] } },
{ "type": "Feature", "properties": { "gid": "69", "id": "_jOigq7eAV9vLXJdht2KM", "notes": null, "status": "accepted", "created_at": "14 Nov 2022 16:25:24 (UTC)", "bus_number": null, "origin_name": "Train Station (El-Shohada Square)", "origin_name_local": "المحطة (ميدان الشهداء)", "destination_name": "Abu Qir", "destination_name_local": "أبو قير", "agency": "P_O_14" }, "geometry": { "type": "Point", "coordinates": [ 29.9042014, 31.1915552 ] } },
{ "type": "Feature", "properties": { "gid": "73", "id": "X7zEZgW_CRNbCZ_j9QZ6V", "notes": null, "status": "accepted", "created_at": "14 Nov 2022 13:45:51 (UTC)", "bus_number": null, "origin_name": "El-Mansheya", "origin_name_local": "المنشية ", "destination_name": "Victoria station", "destination_name_local": "محطة فيكتوريا", "agency": "P_O_14" }, "geometry": { "type": "Point", "coordinates": [ 29.8943682, 31.1997221 ] } },
{ "type": "Feature", "properties": { "gid": "84", "id": "88sUAFZTecrasb1tDJfdn", "notes": null, "status": "accepted", "created_at": "14 Nov 2022 14:05:44 (UTC)", "bus_number": null, "origin_name": "Bahary (Ras Al-Tin)", "origin_name_local": "بحري (راس التين)", "destination_name": "El-Mandara", "destination_name_local": "المندرة ", "agency": "P_O_14" }, "geometry": { "type": "Point", "coordinates": [ 29.8743624, 31.2029012 ] } },
{ "type": "Feature", "properties": { "gid": "89", "id": "72WxMAFfNRdlfzmGCTXYw", "notes": null, "status": "accepted", "created_at": "14 Nov 2022 14:57:34 (UTC)", "bus_number": null, "origin_name": "Train Station (El-Shohada Square)", "origin_name_local": "المحطة (ميدان الشهداء)", "destination_name": "Kilo 21", "destination_name_local": "الكيلو 21", "agency": "P_O_14" }, "geometry": { "type": "Point", "coordinates": [ 29.9028554, 31.1926975 ] } },
{ "type": "Feature", "properties": { "gid": "92", "id": "Chu1NclG8VyCTkrWEX4fs", "notes": null, "status": "accepted", "created_at": "14 Nov 2022 13:34:08 (UTC)", "bus_number": null, "origin_name": "El-Mansheya", "origin_name_local": "المنشية ", "destination_name": "Abo Soliman", "destination_name_local": "أبو سليمان", "agency": "P_O_14" }, "geometry": { "type": "Point", "coordinates": [ 29.8944464, 31.1996363 ] } },
{ "type": "Feature", "properties": { "gid": "95", "id": "3UKKDkE3ggEBXzWKG4VgY", "notes": ".", "status": "accepted", "created_at": "17 Nov 2022 11:45:46 (UTC)", "bus_number": "25", "origin_name": "Bahary (Ras Al-Tin)", "origin_name_local": "بحري (راس التين)", "destination_name": "Abu Qir", "destination_name_local": "أبو قير", "agency": "Minibus" }, "geometry": { "type": "Point", "coordinates": [ 29.8757923, 31.2039009 ] } },
{ "type": "Feature", "properties": { "gid": "98", "id": "0ymeBHZwoghwE3vyglSkp", "notes": ".", "status": "accepted", "created_at": "17 Nov 2022 13:40:34 (UTC)", "bus_number": "781", "origin_name": "Sidi Gabir", "origin_name_local": "سيدي جابر ", "destination_name": "El-Awayed", "destination_name_local": "العوايد ", "agency": "Bus" }, "geometry": { "type": "Point", "coordinates": [ 29.9439806, 31.219333 ] } },
{ "type": "Feature", "properties": { "gid": "101", "id": "MaS4rhUk8U86KW8H2Utg-", "notes": null, "status": "accepted", "created_at": "14 Nov 2022 16:57:52 (UTC)", "bus_number": "409", "origin_name": "Train Station (El-Shohada Square)", "origin_name_local": "المحطة (ميدان الشهداء)", "destination_name": "El-Nasreya El-Qadema", "destination_name_local": "الناصرية القديمة ", "agency": "Bus" }, "geometry": { "type": "Point", "coordinates": [ 29.904709, 31.1933939 ] } },
{ "type": "Feature", "properties": { "gid": "106", "id": "tldZvv0Xk1k0bMct9FlMt", "notes": "الاتوبيس الدورين السياحي ", "status": "accepted", "created_at": "17 Nov 2022 11:18:31 (UTC)", "bus_number": null, "origin_name": "Anfoshy", "origin_name_local": "الأنفوشي", "destination_name": "El-Mandara", "destination_name_local": "المندرة ", "agency": "Bus" }, "geometry": { "type": "Point", "coordinates": [ 29.8823613, 31.2089693 ] } },
{ "type": "Feature", "properties": { "gid": "110", "id": "6vFRD6HRvpYJj4Ecdvcmf", "notes": null, "status": "accepted", "created_at": "15 Nov 2022 16:59:20 (UTC)", "bus_number": null, "origin_name": "Asafra", "origin_name_local": "العصافره ", "destination_name": "El-Mawqaf El-Geded", "destination_name_local": "الموقف الجديد ", "agency": "P_O_14" }, "geometry": { "type": "Point", "coordinates": [ 30.0060708, 31.270964 ] } },
{ "type": "Feature", "properties": { "gid": "111", "id": "LHvUznYwloFrB69uT7Mke", "notes": null, "status": "accepted", "created_at": "15 Nov 2022 13:17:45 (UTC)", "bus_number": null, "origin_name": "El-Awayed", "origin_name_local": "العوايد ", "destination_name": "Abu Qir", "destination_name_local": "أبو قير", "agency": "P_O_14" }, "geometry": { "type": "Point", "coordinates": [ 29.9939629, 31.2198469 ] } },
{ "type": "Feature", "properties": { "gid": "112", "id": "SyqzghEjEXdLqCtwGHjpK", "notes": null, "status": "accepted", "created_at": "15 Nov 2022 16:58:09 (UTC)", "bus_number": null, "origin_name": "Asafra", "origin_name_local": "العصافره ", "destination_name": "El-Mansheya", "destination_name_local": "المنشية ", "agency": "P_O_14" }, "geometry": { "type": "Point", "coordinates": [ 30.0059173, 31.2707389 ] } },
{ "type": "Feature", "properties": { "gid": "114", "id": "CA4IgYqTlRhQIruKB2xmW", "notes": null, "status": "accepted", "created_at": "15 Nov 2022 16:57:34 (UTC)", "bus_number": null, "origin_name": "Asafra", "origin_name_local": "العصافره ", "destination_name": "Train Station (El-Shohada Square)", "destination_name_local": "المحطة (ميدان الشهداء)", "agency": "P_O_14" }, "geometry": { "type": "Point", "coordinates": [ 30.0059802, 31.2707996 ] } },
{ "type": "Feature", "properties": { "gid": "117", "id": "qVohn4929fL9EnRKH5tOr", "notes": null, "status": "accepted", "created_at": "15 Nov 2022 16:55:12 (UTC)", "bus_number": null, "origin_name": "Asafra", "origin_name_local": "العصافره ", "destination_name": "El-Sa'ah (Clock Square)", "destination_name_local": "الساعة ", "agency": "P_O_14" }, "geometry": { "type": "Point", "coordinates": [ 30.0063435, 31.2702689 ] } },
{ "type": "Feature", "properties": { "gid": "119", "id": "sud7FrB-bkt16WT_7vbb4", "notes": null, "status": "accepted", "created_at": "14 Nov 2022 13:42:59 (UTC)", "bus_number": null, "origin_name": "El-Mansheya", "origin_name_local": "المنشية ", "destination_name": "Abu Qir", "destination_name_local": "أبو قير", "agency": "P_O_14" }, "geometry": { "type": "Point", "coordinates": [ 29.8950552, 31.1996007 ] } },
{ "type": "Feature", "properties": { "gid": "124", "id": "03U5p4Za7-rSgTM7QOUvx", "notes": null, "status": "accepted", "created_at": "15 Nov 2022 16:35:19 (UTC)", "bus_number": null, "origin_name": "Sidi Bishr", "origin_name_local": "سيدي بشر ", "destination_name": "El-Sa'ah (Clock Square)", "destination_name_local": "الساعة ", "agency": "P_O_14" }, "geometry": { "type": "Point", "coordinates": [ 29.9925427, 31.2558078 ] } },
{ "type": "Feature", "properties": { "gid": "129", "id": "TuobiP5NtAIJOJkOztnNh", "notes": null, "status": "accepted", "created_at": "15 Nov 2022 16:32:49 (UTC)", "bus_number": null, "origin_name": "Sidi Bishr", "origin_name_local": "سيدي بشر ", "destination_name": "Asafra", "destination_name_local": "العصافره ", "agency": "P_O_14" }, "geometry": { "type": "Point", "coordinates": [ 29.9937088, 31.256266 ] } },
{ "type": "Feature", "properties": { "gid": "133", "id": "ErIvTiixuZIuseSDgPqOh", "notes": null, "status": "accepted", "created_at": "15 Nov 2022 16:30:53 (UTC)", "bus_number": null, "origin_name": "Sidi Bishr", "origin_name_local": "سيدي بشر ", "destination_name": "Train Station (El-Shohada Square)", "destination_name_local": "المحطة (ميدان الشهداء)", "agency": "P_O_14" }, "geometry": { "type": "Point", "coordinates": [ 29.992657, 31.2565085 ] } },
{ "type": "Feature", "properties": { "gid": "134", "id": "hJT62NR4vbda7pKWTYXgc", "notes": null, "status": "accepted", "created_at": "15 Nov 2022 15:31:42 (UTC)", "bus_number": null, "origin_name": "Al-Seyouf (Falaky)", "origin_name_local": "السيوف (الفلكي)", "destination_name": "El-Sa'ah (Clock Square)", "destination_name_local": "الساعة ", "agency": "P_B_8" }, "geometry": { "type": "Point", "coordinates": [ 29.9988807, 31.2410034 ] } },
{ "type": "Feature", "properties": { "gid": "135", "id": "mTPqPYOlixALutHDDeLq6", "notes": null, "status": "accepted", "created_at": "15 Nov 2022 15:24:49 (UTC)", "bus_number": null, "origin_name": "Al-Seyouf (Falaky)", "origin_name_local": "السيوف (الفلكي)", "destination_name": "El-Awayed", "destination_name_local": "العوايد ", "agency": "P_O_14" }, "geometry": { "type": "Point", "coordinates": [ 29.9982116, 31.2415332 ] } },
{ "type": "Feature", "properties": { "gid": "136", "id": "auMT3s-WD2H8QqcdBsIKo", "notes": null, "status": "accepted", "created_at": "15 Nov 2022 15:27:18 (UTC)", "bus_number": null, "origin_name": "Al-Seyouf (Falaky)", "origin_name_local": "السيوف (الفلكي)", "destination_name": "El-Mansheya", "destination_name_local": "المنشية ", "agency": "P_O_14" }, "geometry": { "type": "Point", "coordinates": [ 29.9983201, 31.2421746 ] } },
{ "type": "Feature", "properties": { "gid": "137", "id": "skNiWFFWDBH9xABhm2zue", "notes": null, "status": "accepted", "created_at": "15 Nov 2022 16:29:23 (UTC)", "bus_number": null, "origin_name": "Sidi Bishr", "origin_name_local": "سيدي بشر ", "destination_name": "El-Mansheya", "destination_name_local": "المنشية ", "agency": "P_O_14" }, "geometry": { "type": "Point", "coordinates": [ 29.9926199, 31.2565355 ] } },
{ "type": "Feature", "properties": { "gid": "138", "id": "vUkf2O4lS6wOAGsTHLYFX", "notes": "دائري سريع ", "status": "accepted", "created_at": "15 Nov 2022 15:22:01 (UTC)", "bus_number": null, "origin_name": "Al-Seyouf (Falaky)", "origin_name_local": "السيوف (الفلكي)", "destination_name": "Train Station (El-Shohada Square)", "destination_name_local": "المحطة (ميدان الشهداء)", "agency": "P_O_14" }, "geometry": { "type": "Point", "coordinates": [ 29.9982382, 31.2412274 ] } },
{ "type": "Feature", "properties": { "gid": "139", "id": "HxsbHILmb6_HsoJFrMW01", "notes": null, "status": "accepted", "created_at": "15 Nov 2022 14:21:34 (UTC)", "bus_number": null, "origin_name": "El-Sa'ah (Clock Square)", "origin_name_local": "الساعة ", "destination_name": "El-Mandara", "destination_name_local": "المندرة ", "agency": "P_O_14" }, "geometry": { "type": "Point", "coordinates": [ 29.9851188, 31.243665 ] } },
{ "type": "Feature", "properties": { "gid": "140", "id": "DY-S2-sNPd5LnA8XSbrj1", "notes": null, "status": "accepted", "created_at": "15 Nov 2022 15:21:20 (UTC)", "bus_number": null, "origin_name": "Al-Seyouf (Falaky)", "origin_name_local": "السيوف (الفلكي)", "destination_name": "Hanuvil", "destination_name_local": "الهانوفيل", "agency": "P_O_14" }, "geometry": { "type": "Point", "coordinates": [ 29.9982979, 31.2411316 ] } },
{ "type": "Feature", "properties": { "gid": "149", "id": "mUdAYd-zzhxQGqS_YDtgh", "notes": null, "status": "accepted", "created_at": "15 Nov 2022 15:20:07 (UTC)", "bus_number": "733", "origin_name": "Al-Seyouf (Falaky)", "origin_name_local": "السيوف (الفلكي)", "destination_name": "Anfoshy", "destination_name_local": "الأنفوشي", "agency": "Bus" }, "geometry": { "type": "Point", "coordinates": [ 29.9982804, 31.2410871 ] } },
{ "type": "Feature", "properties": { "gid": "150", "id": "0ZJr-KsWEgAOxQCeR8y6U", "notes": null, "status": "accepted", "created_at": "15 Nov 2022 14:17:17 (UTC)", "bus_number": null, "origin_name": "El-Sa'ah (Clock Square)", "origin_name_local": "الساعة ", "destination_name": "El-Mansheya", "destination_name_local": "المنشية ", "agency": "P_O_14" }, "geometry": { "type": "Point", "coordinates": [ 29.9844375, 31.2433098 ] } },
{ "type": "Feature", "properties": { "gid": "151", "id": "162dfPck1t6LIujzQ7hAL", "notes": null, "status": "accepted", "created_at": "15 Nov 2022 14:21:17 (UTC)", "bus_number": null, "origin_name": "El-Sa'ah (Clock Square)", "origin_name_local": "الساعة ", "destination_name": "Asafra", "destination_name_local": "العصافره ", "agency": "P_O_14" }, "geometry": { "type": "Point", "coordinates": [ 29.9850966, 31.2436587 ] } },
{ "type": "Feature", "properties": { "gid": "152", "id": "-ZdlWJfMuUXegSyQyRfeJ", "notes": null, "status": "accepted", "created_at": "15 Nov 2022 14:09:51 (UTC)", "bus_number": null, "origin_name": "El-Sa'ah (Clock Square)", "origin_name_local": "الساعة ", "destination_name": "Sidi Gabir", "destination_name_local": "سيدي جابر ", "agency": "P_O_14" }, "geometry": { "type": "Point", "coordinates": [ 29.9838659, 31.2430203 ] } },
{ "type": "Feature", "properties": { "gid": "153", "id": "kptvAdwnCrgO3ebujucD_", "notes": null, "status": "accepted", "created_at": "15 Nov 2022 14:20:31 (UTC)", "bus_number": null, "origin_name": "El-Sa'ah (Clock Square)", "origin_name_local": "الساعة ", "destination_name": "Train Station (El-Shohada Square)", "destination_name_local": "المحطة (ميدان الشهداء)", "agency": "P_O_14" }, "geometry": { "type": "Point", "coordinates": [ 29.9851417, 31.2436477 ] } },
{ "type": "Feature", "properties": { "gid": "157", "id": "QqvltrrKQ7ogfegPokcK5", "notes": null, "status": "accepted", "created_at": "15 Nov 2022 14:20:52 (UTC)", "bus_number": null, "origin_name": "El-Sa'ah (Clock Square)", "origin_name_local": "الساعة ", "destination_name": "El-Mawqaf El-Geded", "destination_name_local": "الموقف الجديد ", "agency": "P_O_14" }, "geometry": { "type": "Point", "coordinates": [ 29.9850766, 31.2436797 ] } },
{ "type": "Feature", "properties": { "gid": "158", "id": "Rkk_G8zBCuP_cg45UOjJ3", "notes": null, "status": "accepted", "created_at": "14 Nov 2022 14:15:48 (UTC)", "bus_number": "4", "origin_name": "Bahary (Ras Al-Tin)", "origin_name_local": "بحري (راس التين)", "destination_name": "Abu Qir", "destination_name_local": "أبو قير", "agency": "Minibus" }, "geometry": { "type": "Point", "coordinates": [ 29.8743453, 31.2024699 ] } },
{ "type": "Feature", "properties": { "gid": "159", "id": "RbgNL7sX6GcvD1tEYou-J", "notes": ".", "status": "accepted", "created_at": "17 Nov 2022 13:04:39 (UTC)", "bus_number": null, "origin_name": "Ezbet Saad", "origin_name_local": "عزبة سعد", "destination_name": "El-Mawqaf El-Geded", "destination_name_local": "الموقف الجديد ", "agency": "P_O_14" }, "geometry": { "type": "Point", "coordinates": [ 29.9411085, 31.2076415 ] } },
{ "type": "Feature", "properties": { "gid": "161", "id": "NsYccBu6lwLt1KAM6NBPb", "notes": null, "status": "accepted", "created_at": "15 Nov 2022 13:10:23 (UTC)", "bus_number": null, "origin_name": "El-Awayed", "origin_name_local": "العوايد ", "destination_name": "El-Sa'ah (Clock Square)", "destination_name_local": "الساعة ", "agency": "P_O_14" }, "geometry": { "type": "Point", "coordinates": [ 29.9940839, 31.2193292 ] } },
{ "type": "Feature", "properties": { "gid": "164", "id": "K6SXBb2sNcSceQT-oAZyH", "notes": null, "status": "accepted", "created_at": "15 Nov 2022 14:05:38 (UTC)", "bus_number": null, "origin_name": "El-Sa'ah (Clock Square)", "origin_name_local": "الساعة ", "destination_name": "El-Awayed", "destination_name_local": "العوايد ", "agency": "P_B_8" }, "geometry": { "type": "Point", "coordinates": [ 29.9842572, 31.2427733 ] } },
{ "type": "Feature", "properties": { "gid": "166", "id": "WUtKV5tHmmLUvXMeN0aik", "notes": null, "status": "accepted", "created_at": "15 Nov 2022 13:35:10 (UTC)", "bus_number": null, "origin_name": "El-Awayed", "origin_name_local": "العوايد ", "destination_name": "Amreyya", "destination_name_local": "العامرية ", "agency": "P_O_14" }, "geometry": { "type": "Point", "coordinates": [ 29.9925751, 31.2213114 ] } },
{ "type": "Feature", "properties": { "gid": "171", "id": "bjjReEujh6Hp2L89TXi6I", "notes": null, "status": "accepted", "created_at": "15 Nov 2022 13:24:20 (UTC)", "bus_number": null, "origin_name": "El-Awayed", "origin_name_local": "العوايد ", "destination_name": "El-Mansheya", "destination_name_local": "المنشية ", "agency": "P_O_14" }, "geometry": { "type": "Point", "coordinates": [ 29.9936224, 31.2195469 ] } },
{ "type": "Feature", "properties": { "gid": "172", "id": "dAN3-89_GWCUnNyf0fNHA", "notes": null, "status": "accepted", "created_at": "14 Nov 2022 15:46:26 (UTC)", "bus_number": null, "origin_name": "Train Station (El-Shohada Square)", "origin_name_local": "المحطة (ميدان الشهداء)", "destination_name": "Airport", "destination_name_local": "المطار ", "agency": "P_O_14" }, "geometry": { "type": "Point", "coordinates": [ 29.9039267, 31.1916796 ] } },
{ "type": "Feature", "properties": { "gid": "174", "id": "w7FRJsWgAC2jrW9ySZ05P", "notes": null, "status": "accepted", "created_at": "14 Nov 2022 14:55:19 (UTC)", "bus_number": null, "origin_name": "Train Station (El-Shohada Square)", "origin_name_local": "المحطة (ميدان الشهداء)", "destination_name": "Bahary (Ras Al-Tin)", "destination_name_local": "بحري (راس التين)", "agency": "P_O_14" }, "geometry": { "type": "Point", "coordinates": [ 29.9028493, 31.1926428 ] } },
{ "type": "Feature", "properties": { "gid": "176", "id": "MmqmLd-H76Iy0YCLiyk-x", "notes": null, "status": "accepted", "created_at": "15 Nov 2022 13:09:54 (UTC)", "bus_number": null, "origin_name": "El-Awayed", "origin_name_local": "العوايد ", "destination_name": "Sidi Bishr", "destination_name_local": "سيدي بشر ", "agency": "P_O_14" }, "geometry": { "type": "Point", "coordinates": [ 29.9941482, 31.2190816 ] } },
{ "type": "Feature", "properties": { "gid": "177", "id": "Pem4tWugjJzUagoTjFjVY", "notes": null, "status": "accepted", "created_at": "14 Nov 2022 16:50:22 (UTC)", "bus_number": null, "origin_name": "Train Station (El-Shohada Square)", "origin_name_local": "المحطة (ميدان الشهداء)", "destination_name": "Amreyya", "destination_name_local": "العامرية ", "agency": "P_O_14" }, "geometry": { "type": "Point", "coordinates": [ 29.9048103, 31.1932526 ] } },
{ "type": "Feature", "properties": { "gid": "178", "id": "F64BxBQ2OaVgwAi6YUVXr", "notes": null, "status": "accepted", "created_at": "14 Nov 2022 14:04:54 (UTC)", "bus_number": null, "origin_name": "Bahary (Ras Al-Tin)", "origin_name_local": "بحري (راس التين)", "destination_name": "Kabo", "destination_name_local": "كابو", "agency": "P_O_14" }, "geometry": { "type": "Point", "coordinates": [ 29.8743662, 31.2028979 ] } },
{ "type": "Feature", "properties": { "gid": "180", "id": "zRfG1RWa2UxsI7rClrKTD", "notes": null, "status": "accepted", "created_at": "15 Nov 2022 11:51:08 (UTC)", "bus_number": null, "origin_name": "El-Mawqaf El-Geded", "origin_name_local": "الموقف الجديد ", "destination_name": "El-Sa'ah (Clock Square)", "destination_name_local": "الساعة ", "agency": "P_O_14" }, "geometry": { "type": "Point", "coordinates": [ 29.9151231, 31.1787653 ] } },
{ "type": "Feature", "properties": { "gid": "181", "id": "pa9V0pux2Baz8bx5SE0Ze", "notes": null, "status": "accepted", "created_at": "15 Nov 2022 11:50:37 (UTC)", "bus_number": null, "origin_name": "El-Mawqaf El-Geded", "origin_name_local": "الموقف الجديد ", "destination_name": "El-Awayed", "destination_name_local": "العوايد ", "agency": "P_O_14" }, "geometry": { "type": "Point", "coordinates": [ 29.9150636, 31.1787564 ] } },
{ "type": "Feature", "properties": { "gid": "182", "id": "81yzwGTdWvqg1AFvDxfQ1", "notes": null, "status": "accepted", "created_at": "14 Nov 2022 15:39:35 (UTC)", "bus_number": "480", "origin_name": "Train Station (El-Shohada Square)", "origin_name_local": "المحطة (ميدان الشهداء)", "destination_name": "Abd El-Qader Al-Gadida", "destination_name_local": "عبد القادر الجديدة ", "agency": "Bus" }, "geometry": { "type": "Point", "coordinates": [ 29.9032324, 31.1924887 ] } },
{ "type": "Feature", "properties": { "gid": "183", "id": "gOOc61Mc7G4Zpp-4LSyD3", "notes": "من الطريق الدولي ", "status": "accepted", "created_at": "14 Nov 2022 16:07:35 (UTC)", "bus_number": null, "origin_name": "Train Station (El-Shohada Square)", "origin_name_local": "المحطة (ميدان الشهداء)", "destination_name": "Asafra", "destination_name_local": "العصافره ", "agency": "P_O_14" }, "geometry": { "type": "Point", "coordinates": [ 29.9046061, 31.1919197 ] } },
{ "type": "Feature", "properties": { "gid": "185", "id": "PKPihoEGdL7lqzOBxNlug", "notes": null, "status": "accepted", "created_at": "15 Nov 2022 11:57:58 (UTC)", "bus_number": null, "origin_name": "El-Mawqaf El-Geded", "origin_name_local": "الموقف الجديد ", "destination_name": "Hanuvil", "destination_name_local": "الهانوفيل", "agency": "P_O_14" }, "geometry": { "type": "Point", "coordinates": [ 29.9153, 31.1777034 ] } },
{ "type": "Feature", "properties": { "gid": "186", "id": "0ojp5m6LqIgsvV6I8dcN8", "notes": null, "status": "accepted", "created_at": "14 Nov 2022 16:51:03 (UTC)", "bus_number": null, "origin_name": "Train Station (El-Shohada Square)", "origin_name_local": "المحطة (ميدان الشهداء)", "destination_name": "Amreyya", "destination_name_local": "العامرية ", "agency": "P_O_14" }, "geometry": { "type": "Point", "coordinates": [ 29.9043274, 31.1934042 ] } },
{ "type": "Feature", "properties": { "gid": "187", "id": "ItFdxPDEWm2z1e83-Hque", "notes": null, "status": "accepted", "created_at": "14 Nov 2022 16:42:21 (UTC)", "bus_number": null, "origin_name": "Train Station (El-Shohada Square)", "origin_name_local": "المحطة (ميدان الشهداء)", "destination_name": "Abis 4", "destination_name_local": "ابيس الرابعه ", "agency": "P_O_14" }, "geometry": { "type": "Point", "coordinates": [ 29.9041038, 31.19337 ] } },
{ "type": "Feature", "properties": { "gid": "188", "id": "2uDKK7UD1zNzObaZAEtyX", "notes": null, "status": "accepted", "created_at": "15 Nov 2022 11:45:19 (UTC)", "bus_number": null, "origin_name": "El-Mawqaf El-Geded", "origin_name_local": "الموقف الجديد ", "destination_name": "Train Station (El-Shohada Square)", "destination_name_local": "المحطة (ميدان الشهداء)", "agency": "P_O_14" }, "geometry": { "type": "Point", "coordinates": [ 29.915222, 31.1785615 ] } },
{ "type": "Feature", "properties": { "gid": "189", "id": "USSR_-l84Slz9ggCLNXYI", "notes": null, "status": "accepted", "created_at": "14 Nov 2022 16:33:21 (UTC)", "bus_number": null, "origin_name": "Train Station (El-Shohada Square)", "origin_name_local": "المحطة (ميدان الشهداء)", "destination_name": "El-Rassafa", "destination_name_local": "الرصافة ", "agency": "P_B_8" }, "geometry": { "type": "Point", "coordinates": [ 29.9051919, 31.1919367 ] } },
{ "type": "Feature", "properties": { "gid": "190", "id": "krAer2UV5LLZiXNxSd1PA", "notes": null, "status": "accepted", "created_at": "15 Nov 2022 11:44:49 (UTC)", "bus_number": null, "origin_name": "El-Mawqaf El-Geded", "origin_name_local": "الموقف الجديد ", "destination_name": "El-Mansheya", "destination_name_local": "المنشية ", "agency": "P_O_14" }, "geometry": { "type": "Point", "coordinates": [ 29.9155959, 31.1781119 ] } },
{ "type": "Feature", "properties": { "gid": "191", "id": "tqZnuednLL0ldWlnheVv8", "notes": null, "status": "accepted", "created_at": "15 Nov 2022 13:16:23 (UTC)", "bus_number": null, "origin_name": "El-Awayed", "origin_name_local": "العوايد ", "destination_name": "Victoria station", "destination_name_local": "محطة فيكتوريا", "agency": "P_O_14" }, "geometry": { "type": "Point", "coordinates": [ 29.9942976, 31.2199599 ] } },
{ "type": "Feature", "properties": { "gid": "192", "id": "l6STNNflOpl_rf0pIsNID", "notes": null, "status": "accepted", "created_at": "15 Nov 2022 11:44:04 (UTC)", "bus_number": null, "origin_name": "El-Mawqaf El-Geded", "origin_name_local": "الموقف الجديد ", "destination_name": "Bahary (Ras Al-Tin)", "destination_name_local": "بحري (راس التين)", "agency": "P_O_14" }, "geometry": { "type": "Point", "coordinates": [ 29.9157325, 31.1781126 ] } },
{ "type": "Feature", "properties": { "gid": "193", "id": "_hWyAZ_JQh5gHddDrtyye", "notes": "اخره عند الصينية ", "status": "accepted", "created_at": "14 Nov 2022 13:21:38 (UTC)", "bus_number": null, "origin_name": "El-Mansheya", "origin_name_local": "المنشية ", "destination_name": "Al-Wardiyan", "destination_name_local": "الورديان", "agency": "P_B_8" }, "geometry": { "type": "Point", "coordinates": [ 29.8928758, 31.1976717 ] } },
{ "type": "Feature", "properties": { "gid": "194", "id": "v9w1mB-Po3ih97k9vA_GB", "notes": null, "status": "accepted", "created_at": "15 Nov 2022 12:09:57 (UTC)", "bus_number": null, "origin_name": "El-Mawqaf El-Geded", "origin_name_local": "الموقف الجديد ", "destination_name": "Borg Al-Arab New Terminal", "destination_name_local": "برج العرب الموقف الجديد", "agency": "P_O_14" }, "geometry": { "type": "Point", "coordinates": [ 29.9156457, 31.1772624 ] } },
{ "type": "Feature", "properties": { "gid": "195", "id": "fPMLdxFbXX9bZogOgBos-", "notes": null, "status": "accepted", "created_at": "15 Nov 2022 12:58:53 (UTC)", "bus_number": null, "origin_name": "El-Awayed", "origin_name_local": "العوايد ", "destination_name": "Al-Maraghi", "destination_name_local": "المراغي", "agency": "P_B_8" }, "geometry": { "type": "Point", "coordinates": [ 29.9943021, 31.2181859 ] } },
{ "type": "Feature", "properties": { "gid": "198", "id": "uchBiTfrix420O53SDebS", "notes": null, "status": "accepted", "created_at": "15 Nov 2022 13:19:48 (UTC)", "bus_number": null, "origin_name": "El-Awayed", "origin_name_local": "العوايد ", "destination_name": "Asafra", "destination_name_local": "العصافره ", "agency": "P_O_14" }, "geometry": { "type": "Point", "coordinates": [ 29.9941515, 31.2199089 ] } },
{ "type": "Feature", "properties": { "gid": "199", "id": "aCNkI-Ntv4o58T8hdl6EN", "notes": null, "status": "accepted", "created_at": "15 Nov 2022 16:59:39 (UTC)", "bus_number": null, "origin_name": "Asafra", "origin_name_local": "العصافره ", "destination_name": "El-Awayed", "destination_name_local": "العوايد ", "agency": "P_O_14" }, "geometry": { "type": "Point", "coordinates": [ 30.0060278, 31.2710756 ] } },
{ "type": "Feature", "properties": { "gid": "200", "id": "emQTEtA_UsXmJ2w6WhkY7", "notes": null, "status": "accepted", "created_at": "15 Nov 2022 11:52:11 (UTC)", "bus_number": null, "origin_name": "El-Mawqaf El-Geded", "origin_name_local": "الموقف الجديد ", "destination_name": "Asafra", "destination_name_local": "العصافره ", "agency": "P_O_14" }, "geometry": { "type": "Point", "coordinates": [ 29.915019, 31.1789995 ] } },
{ "type": "Feature", "properties": { "gid": "205", "id": "Aw3lr1HAcK1p530uYvcHd", "notes": null, "status": "accepted", "created_at": "14 Nov 2022 15:05:31 (UTC)", "bus_number": "402", "origin_name": "Train Station (El-Shohada Square)", "origin_name_local": "المحطة (ميدان الشهداء)", "destination_name": "Masaken Toshka", "destination_name_local": "مساكن توشكى ", "agency": "Bus" }, "geometry": { "type": "Point", "coordinates": [ 29.9024414, 31.192524 ] } },
{ "type": "Feature", "properties": { "gid": "206", "id": "jb5WuQd6FNwDdKFCgP7Bb", "notes": null, "status": "accepted", "created_at": "14 Nov 2022 14:15:04 (UTC)", "bus_number": "5", "origin_name": "Bahary (Ras Al-Tin)", "origin_name_local": "بحري (راس التين)", "destination_name": "Street 45", "destination_name_local": "شارع 45 ", "agency": "Minibus" }, "geometry": { "type": "Point", "coordinates": [ 29.8743812, 31.2024581 ] } },
{ "type": "Feature", "properties": { "gid": "212", "id": "DG4PuuAIqbdpIHRmK5Pmt", "notes": null, "status": "accepted", "created_at": "14 Nov 2022 16:53:54 (UTC)", "bus_number": "735", "origin_name": "Train Station (El-Shohada Square)", "origin_name_local": "المحطة (ميدان الشهداء)", "destination_name": "Asafra", "destination_name_local": "العصافره ", "agency": "Bus" }, "geometry": { "type": "Point", "coordinates": [ 29.9041023, 31.1939869 ] } },
{ "type": "Feature", "properties": { "gid": "213", "id": "Cw0xXyvUUClYSbdbUwVvO", "notes": "الطريق السريع ", "status": "accepted", "created_at": "14 Nov 2022 16:14:44 (UTC)", "bus_number": null, "origin_name": "Train Station (El-Shohada Square)", "origin_name_local": "المحطة (ميدان الشهداء)", "destination_name": "Asafra", "destination_name_local": "العصافره ", "agency": "P_O_14" }, "geometry": { "type": "Point", "coordinates": [ 29.9044322, 31.1919349 ] } },
{ "type": "Feature", "properties": { "gid": "215", "id": "3AHtN6p_5N4GOKFIBhVE6", "notes": "مكانها في المنشية عند الجندي المجهول ", "status": "accepted", "created_at": "17 Nov 2022 13:06:23 (UTC)", "bus_number": null, "origin_name": "Ezbet Saad", "origin_name_local": "عزبة سعد", "destination_name": "El-Mansheya", "destination_name_local": "المنشية ", "agency": "P_O_14" }, "geometry": { "type": "Point", "coordinates": [ 29.941278, 31.2078622 ] } },
{ "type": "Feature", "properties": { "gid": "216", "id": "FZMKIwD865WqEef2hY-Bq", "notes": null, "status": "accepted", "created_at": "15 Nov 2022 13:32:15 (UTC)", "bus_number": null, "origin_name": "El-Awayed", "origin_name_local": "العوايد ", "destination_name": "Ezbet Saad", "destination_name_local": "عزبة سعد", "agency": "P_O_14" }, "geometry": { "type": "Point", "coordinates": [ 29.9920376, 31.2200843 ] } },
{ "type": "Feature", "properties": { "gid": "217", "id": "euG99ulmze_iXjk6Tt2rb", "notes": "مكانها في سيدي جابر عند محطة القطار من قبلي وليس على شارع ابو قير ", "status": "accepted", "created_at": "17 Nov 2022 13:08:09 (UTC)", "bus_number": null, "origin_name": "Ezbet Saad", "origin_name_local": "عزبة سعد", "destination_name": "Sidi Gabir", "destination_name_local": "سيدي جابر ", "agency": "P_B_8" }, "geometry": { "type": "Point", "coordinates": [ 29.9412433, 31.2079679 ] } },
{ "type": "Feature", "properties": { "gid": "219", "id": "Jb1c0H0LQxK1PHGCzbK80", "notes": ".", "status": "accepted", "created_at": "17 Nov 2022 13:22:32 (UTC)", "bus_number": null, "origin_name": "Sidi Gabir", "origin_name_local": "سيدي جابر ", "destination_name": "Ezbet Saad", "destination_name_local": "عزبة سعد", "agency": "P_B_8" }, "geometry": { "type": "Point", "coordinates": [ 29.9430726, 31.2189066 ] } },
{ "type": "Feature", "properties": { "gid": "220", "id": "nUo3DoeF7H_1HB4LNE2Pn", "notes": ".", "status": "accepted", "created_at": "17 Nov 2022 13:29:00 (UTC)", "bus_number": null, "origin_name": "Sidi Gabir", "origin_name_local": "سيدي جابر ", "destination_name": "El-Awayed", "destination_name_local": "العوايد ", "agency": "P_O_14" }, "geometry": { "type": "Point", "coordinates": [ 29.9435855, 31.2192813 ] } },
{ "type": "Feature", "properties": { "gid": "221", "id": "Zn6jlW7AC_hQu8fyGnUiN", "notes": ".", "status": "accepted", "created_at": "17 Nov 2022 13:24:49 (UTC)", "bus_number": null, "origin_name": "Sidi Gabir", "origin_name_local": "سيدي جابر ", "destination_name": "El-Mawqaf El-Geded", "destination_name_local": "الموقف الجديد ", "agency": "P_O_14" }, "geometry": { "type": "Point", "coordinates": [ 29.943157, 31.2189055 ] } },
{ "type": "Feature", "properties": { "gid": "225", "id": "fue5U6RjB5hO4dqc9OJpb", "notes": ".", "status": "accepted", "created_at": "17 Nov 2022 14:30:52 (UTC)", "bus_number": "759", "origin_name": "Quta (Soter)", "origin_name_local": "كوته (سوتر)", "destination_name": "El-Mawqaf El-Geded", "destination_name_local": "الموقف الجديد ", "agency": "Bus" }, "geometry": { "type": "Point", "coordinates": [ 29.9071396, 31.2077653 ] } },
{ "type": "Feature", "properties": { "gid": "226", "id": "OR4Bzv8BXl6i3d27IR3pg", "notes": ".", "status": "accepted", "created_at": "17 Nov 2022 13:25:36 (UTC)", "bus_number": null, "origin_name": "Sidi Gabir", "origin_name_local": "سيدي جابر ", "destination_name": "Hanuvil", "destination_name_local": "الهانوفيل", "agency": "P_O_14" }, "geometry": { "type": "Point", "coordinates": [ 29.9431642, 31.2189907 ] } },
{ "type": "Feature", "properties": { "gid": "228", "id": "Gd2spvHpt8Vvjpctu_Ju5", "notes": null, "status": "accepted", "created_at": "14 Nov 2022 13:42:24 (UTC)", "bus_number": null, "origin_name": "El-Mansheya", "origin_name_local": "المنشية ", "destination_name": "Bakus", "destination_name_local": "باكوس", "agency": "P_O_14" }, "geometry": { "type": "Point", "coordinates": [ 29.8949397, 31.1996284 ] } },
{ "type": "Feature", "properties": { "gid": "233", "id": "9xJX_drwoYLfA5mEJ_Vqi", "notes": null, "status": "accepted", "created_at": "15 Nov 2022 11:57:36 (UTC)", "bus_number": null, "origin_name": "El-Mawqaf El-Geded", "origin_name_local": "الموقف الجديد ", "destination_name": "Abu Talat", "destination_name_local": "ابو تلات ", "agency": "P_O_14" }, "geometry": { "type": "Point", "coordinates": [ 29.9152406, 31.1776753 ] } },
{ "type": "Feature", "properties": { "gid": "234", "id": "HS2bvtCqZQ8BAV9cjUz5A", "notes": ".", "status": "accepted", "created_at": "17 Nov 2022 12:47:45 (UTC)", "bus_number": null, "origin_name": "Hadra", "origin_name_local": "الحضرة", "destination_name": "Asafra", "destination_name_local": "العصافره ", "agency": "P_O_14" }, "geometry": { "type": "Point", "coordinates": [ 29.9343434, 31.2035242 ] } },
{ "type": "Feature", "properties": { "gid": "238", "id": "Sah55DwHIAuxO0xO1EezC", "notes": null, "status": "accepted", "created_at": "14 Nov 2022 16:32:03 (UTC)", "bus_number": null, "origin_name": "Train Station (El-Shohada Square)", "origin_name_local": "المحطة (ميدان الشهداء)", "destination_name": "Hadra", "destination_name_local": "الحضرة", "agency": "P_O_14" }, "geometry": { "type": "Point", "coordinates": [ 29.9054134, 31.1922336 ] } },
{ "type": "Feature", "properties": { "gid": "239", "id": "MsV_z-kvwDzX18vParOP2", "notes": "من الطريق الدولي ", "status": "accepted", "created_at": "14 Nov 2022 16:28:14 (UTC)", "bus_number": null, "origin_name": "Train Station (El-Shohada Square)", "origin_name_local": "المحطة (ميدان الشهداء)", "destination_name": "Street 45", "destination_name_local": "شارع 45 ", "agency": "P_O_14" }, "geometry": { "type": "Point", "coordinates": [ 29.9047932, 31.1915483 ] } },
{ "type": "Feature", "properties": { "gid": "240", "id": "Ul7yQh02YLBBZaJBEj1My", "notes": "اخره كوبري الناموس ", "status": "accepted", "created_at": "14 Nov 2022 13:33:27 (UTC)", "bus_number": null, "origin_name": "El-Mansheya", "origin_name_local": "المنشية ", "destination_name": "Hagar Al-Nawateyah (Namos Bridge)", "destination_name_local": "حجر النواتية (كوبري الناموس)", "agency": "P_O_14" }, "geometry": { "type": "Point", "coordinates": [ 29.8944767, 31.1996223 ] } },
{ "type": "Feature", "properties": { "gid": "242", "id": "vaon7kGQHwDoltixRRQoo", "notes": null, "status": "accepted", "created_at": "14 Nov 2022 16:59:02 (UTC)", "bus_number": "20", "origin_name": "Train Station (El-Shohada Square)", "origin_name_local": "المحطة (ميدان الشهداء)", "destination_name": "Al-Milaha", "destination_name_local": "الملاحه ", "agency": "Minibus" }, "geometry": { "type": "Point", "coordinates": [ 29.903977, 31.1939546 ] } },
{ "type": "Feature", "properties": { "gid": "244", "id": "h6_NGqaWj-ibZn8rABB0t", "notes": ".", "status": "accepted", "created_at": "17 Nov 2022 12:28:50 (UTC)", "bus_number": null, "origin_name": "Hadra", "origin_name_local": "الحضرة", "destination_name": "Train Station (El-Shohada Square)", "destination_name_local": "المحطة (ميدان الشهداء)", "agency": "P_O_14" }, "geometry": { "type": "Point", "coordinates": [ 29.9339189, 31.2012635 ] } },
{ "type": "Feature", "properties": { "gid": "246", "id": "o-Elm3jnYp5Rtr8z0uFXy", "notes": null, "status": "accepted", "created_at": "15 Nov 2022 13:40:26 (UTC)", "bus_number": null, "origin_name": "El-Awayed", "origin_name_local": "العوايد ", "destination_name": "Hadra", "destination_name_local": "الحضرة", "agency": "P_O_14" }, "geometry": { "type": "Point", "coordinates": [ 29.9914347, 31.220307 ] } },
{ "type": "Feature", "properties": { "gid": "247", "id": "jc0qqlu1EJYfH5RxTzKjb", "notes": null, "status": "accepted", "created_at": "14 Nov 2022 15:03:30 (UTC)", "bus_number": "455", "origin_name": "Train Station (El-Shohada Square)", "origin_name_local": "المحطة (ميدان الشهداء)", "destination_name": "Shahr Al-Asal", "destination_name_local": "شهر العسل", "agency": "Bus" }, "geometry": { "type": "Point", "coordinates": [ 29.9027845, 31.1926106 ] } },
{ "type": "Feature", "properties": { "gid": "248", "id": "0YO9VhuWR7o5mEXo7-etv", "notes": "منطقة في البيطاش جوه ", "status": "accepted", "created_at": "14 Nov 2022 14:54:31 (UTC)", "bus_number": null, "origin_name": "Train Station (El-Shohada Square)", "origin_name_local": "المحطة (ميدان الشهداء)", "destination_name": "Shahr Al-Asal", "destination_name_local": "شهر العسل", "agency": "P_O_14" }, "geometry": { "type": "Point", "coordinates": [ 29.9028183, 31.1926397 ] } },
{ "type": "Feature", "properties": { "gid": "251", "id": "RtrvHx3Q91VwtpC2VPC19", "notes": ".", "status": "accepted", "created_at": "17 Nov 2022 16:17:08 (UTC)", "bus_number": null, "origin_name": "Kilo 21", "origin_name_local": "الكيلو 21", "destination_name": "Raml Station", "destination_name_local": "محطة الرمل", "agency": "P_O_14" }, "geometry": { "type": "Point", "coordinates": [ 29.7330845, 31.0772579 ] } },
{ "type": "Feature", "properties": { "gid": "252", "id": "1o-UVmMmua81nKOJqsr0Q", "notes": ".", "status": "accepted", "created_at": "17 Nov 2022 15:40:17 (UTC)", "bus_number": null, "origin_name": "Kilo 21", "origin_name_local": "الكيلو 21", "destination_name": "Amreyya", "destination_name_local": "العامرية ", "agency": "P_O_14" }, "geometry": { "type": "Point", "coordinates": [ 29.7364383, 31.0777077 ] } },
{ "type": "Feature", "properties": { "gid": "253", "id": "9DFxRYUUKyoH5w7EGiMDx", "notes": ".", "status": "accepted", "created_at": "17 Nov 2022 16:16:32 (UTC)", "bus_number": null, "origin_name": "Kilo 21", "origin_name_local": "الكيلو 21", "destination_name": "Sidi Gabir", "destination_name_local": "سيدي جابر ", "agency": "P_O_14" }, "geometry": { "type": "Point", "coordinates": [ 29.7330742, 31.0773114 ] } },
{ "type": "Feature", "properties": { "gid": "254", "id": "KDqyZ9KgqMSEV8WSN6WWm", "notes": null, "status": "accepted", "created_at": "15 Nov 2022 14:09:06 (UTC)", "bus_number": null, "origin_name": "El-Sa'ah (Clock Square)", "origin_name_local": "الساعة ", "destination_name": "Bakus", "destination_name_local": "باكوس", "agency": "P_O_14" }, "geometry": { "type": "Point", "coordinates": [ 29.9838413, 31.2430915 ] } },
{ "type": "Feature", "properties": { "gid": "256", "id": "kDau2SjxNlonN-7JJvGfj", "notes": ".", "status": "accepted", "created_at": "17 Nov 2022 15:36:18 (UTC)", "bus_number": null, "origin_name": "Kilo 21", "origin_name_local": "الكيلو 21", "destination_name": "El-Awayed", "destination_name_local": "العوايد ", "agency": "P_O_14" }, "geometry": { "type": "Point", "coordinates": [ 29.7371721, 31.0775834 ] } },
{ "type": "Feature", "properties": { "gid": "257", "id": "cOSbsNsZGKBgLDivBrrS8", "notes": ".", "status": "accepted", "created_at": "17 Nov 2022 15:57:43 (UTC)", "bus_number": null, "origin_name": "Kilo 21", "origin_name_local": "الكيلو 21", "destination_name": "Hanuvil", "destination_name_local": "الهانوفيل", "agency": "P_B_8" }, "geometry": { "type": "Point", "coordinates": [ 29.7353662, 31.0781125 ] } },
{ "type": "Feature", "properties": { "gid": "259", "id": "R7aUD7nVP4RsE9J-dm50x", "notes": "بيدخل لحد الجمعية ", "status": "accepted", "created_at": "17 Nov 2022 14:51:59 (UTC)", "bus_number": null, "origin_name": "Raml Station", "origin_name_local": "محطة الرمل", "destination_name": "Hanuvil Gameyya", "destination_name_local": "هانوفيل جمعية", "agency": "P_O_14" }, "geometry": { "type": "Point", "coordinates": [ 29.8990212, 31.200421 ] } },
{ "type": "Feature", "properties": { "gid": "260", "id": "Mu85-SGgQGQlRDLNIO1MP", "notes": ".", "status": "accepted", "created_at": "17 Nov 2022 15:35:50 (UTC)", "bus_number": null, "origin_name": "Kilo 21", "origin_name_local": "الكيلو 21", "destination_name": "El-Mawqaf El-Geded", "destination_name_local": "الموقف الجديد ", "agency": "P_O_14" }, "geometry": { "type": "Point", "coordinates": [ 29.7371704, 31.0775666 ] } },
{ "type": "Feature", "properties": { "gid": "261", "id": "DXV_gc9BigSG3WEg6O2Dd", "notes": null, "status": "accepted", "created_at": "15 Nov 2022 14:11:28 (UTC)", "bus_number": null, "origin_name": "El-Sa'ah (Clock Square)", "origin_name_local": "الساعة ", "destination_name": "Abo Soliman", "destination_name_local": "أبو سليمان", "agency": "P_B_8" }, "geometry": { "type": "Point", "coordinates": [ 29.9835802, 31.2435888 ] } },
{ "type": "Feature", "properties": { "gid": "262", "id": "aH-mgaR4nA-eYWAkCrAs1", "notes": null, "status": "accepted", "created_at": "15 Nov 2022 13:36:05 (UTC)", "bus_number": null, "origin_name": "El-Awayed", "origin_name_local": "العوايد ", "destination_name": "Borg Al-Arab New Terminal", "destination_name_local": "برج العرب الموقف الجديد", "agency": "P_O_14" }, "geometry": { "type": "Point", "coordinates": [ 29.9925073, 31.2213203 ] } },
{ "type": "Feature", "properties": { "gid": "263", "id": "6RUYIJgn3Y9jhpAGT1-ro", "notes": null, "status": "accepted", "created_at": "14 Nov 2022 14:53:31 (UTC)", "bus_number": null, "origin_name": "Train Station (El-Shohada Square)", "origin_name_local": "المحطة (ميدان الشهداء)", "destination_name": "Al-Bitash", "destination_name_local": "البيطاش", "agency": "P_O_14" }, "geometry": { "type": "Point", "coordinates": [ 29.9028378, 31.1926515 ] } },
{ "type": "Feature", "properties": { "gid": "264", "id": "btrACxXxbgCoVEvyHF92z", "notes": null, "status": "accepted", "created_at": "15 Nov 2022 12:00:51 (UTC)", "bus_number": null, "origin_name": "El-Mawqaf El-Geded", "origin_name_local": "الموقف الجديد ", "destination_name": "Al-Bitash", "destination_name_local": "البيطاش", "agency": "P_O_14" }, "geometry": { "type": "Point", "coordinates": [ 29.915749, 31.1773637 ] } },
{ "type": "Feature", "properties": { "gid": "265", "id": "qkTeI3VIrife6xErG2ED4", "notes": null, "status": "accepted", "created_at": "15 Nov 2022 12:10:40 (UTC)", "bus_number": null, "origin_name": "El-Mawqaf El-Geded", "origin_name_local": "الموقف الجديد ", "destination_name": "Borg Al-Arab Old Terminal", "destination_name_local": "برج العرب الموقف القديم", "agency": "P_O_14" }, "geometry": { "type": "Point", "coordinates": [ 29.9156513, 31.1772536 ] } },
{ "type": "Feature", "properties": { "gid": "266", "id": "ktM5xXij7BySgWeYkfFxP", "notes": null, "status": "accepted", "created_at": "15 Nov 2022 13:16:47 (UTC)", "bus_number": null, "origin_name": "El-Awayed", "origin_name_local": "العوايد ", "destination_name": "Miami", "destination_name_local": "ميامي ", "agency": "P_B_8" }, "geometry": { "type": "Point", "coordinates": [ 29.9940818, 31.2202256 ] } },
{ "type": "Feature", "properties": { "gid": "267", "id": "a-2sCEqINOtFIy4654dkJ", "notes": null, "status": "accepted", "created_at": "14 Nov 2022 14:58:46 (UTC)", "bus_number": "423", "origin_name": "Train Station (El-Shohada Square)", "origin_name_local": "المحطة (ميدان الشهداء)", "destination_name": "Kilo 21", "destination_name_local": "الكيلو 21", "agency": "Bus" }, "geometry": { "type": "Point", "coordinates": [ 29.9028684, 31.1926268 ] } },
{ "type": "Feature", "properties": { "gid": "268", "id": "eOTOMUG0kLWA4HTZToJiS", "notes": null, "status": "accepted", "created_at": "15 Nov 2022 13:30:03 (UTC)", "bus_number": null, "origin_name": "El-Awayed", "origin_name_local": "العوايد ", "destination_name": "Bakus", "destination_name_local": "باكوس", "agency": "P_O_14" }, "geometry": { "type": "Point", "coordinates": [ 29.9923074, 31.220069 ] } },
{ "type": "Feature", "properties": { "gid": "269", "id": "B1P8IZFZvPFJk01F8oy1Y", "notes": null, "status": "accepted", "created_at": "14 Nov 2022 13:38:25 (UTC)", "bus_number": null, "origin_name": "El-Mansheya", "origin_name_local": "المنشية ", "destination_name": "Smouha", "destination_name_local": "سموحه ", "agency": "P_O_14" }, "geometry": { "type": "Point", "coordinates": [ 29.8945661, 31.1995626 ] } },
{ "type": "Feature", "properties": { "gid": "270", "id": "-e0PnnUtK6wPtzoEUlL55", "notes": null, "status": "accepted", "created_at": "15 Nov 2022 14:07:35 (UTC)", "bus_number": null, "origin_name": "El-Sa'ah (Clock Square)", "origin_name_local": "الساعة ", "destination_name": "Al-Maraghi", "destination_name_local": "المراغي", "agency": "P_B_8" }, "geometry": { "type": "Point", "coordinates": [ 29.984282, 31.2429598 ] } },
{ "type": "Feature", "properties": { "gid": "271", "id": "-xB174qiP7PA9rbM3a-zk", "notes": null, "status": "accepted", "created_at": "15 Nov 2022 13:04:45 (UTC)", "bus_number": null, "origin_name": "El-Awayed", "origin_name_local": "العوايد ", "destination_name": "Al-Maraghi", "destination_name_local": "المراغي", "agency": "P_O_14" }, "geometry": { "type": "Point", "coordinates": [ 29.9941482, 31.2190816 ] } },
{ "type": "Feature", "properties": { "gid": "272", "id": "9NfRZxFPOnqa6-KklwBuW", "notes": null, "status": "accepted", "created_at": "14 Nov 2022 15:09:37 (UTC)", "bus_number": null, "origin_name": "Train Station (El-Shohada Square)", "origin_name_local": "المحطة (ميدان الشهداء)", "destination_name": "Abu Youssef", "destination_name_local": "ابو يوسف ", "agency": "P_O_14" }, "geometry": { "type": "Point", "coordinates": [ 29.902816, 31.1928142 ] } },
{ "type": "Feature", "properties": { "gid": "273", "id": "Zdnw_ySd1RVjdHtAs-94m", "notes": null, "status": "accepted", "created_at": "15 Nov 2022 12:58:25 (UTC)", "bus_number": null, "origin_name": "El-Awayed", "origin_name_local": "العوايد ", "destination_name": "Khorshid", "destination_name_local": "خورشيد ", "agency": "P_B_8" }, "geometry": { "type": "Point", "coordinates": [ 29.994125, 31.2180848 ] } },
{ "type": "Feature", "properties": { "gid": "274", "id": "zC4SR6DnLYaXBecQS0RNK", "notes": null, "status": "accepted", "created_at": "14 Nov 2022 13:36:28 (UTC)", "bus_number": null, "origin_name": "El-Mansheya", "origin_name_local": "المنشية ", "destination_name": "Airport", "destination_name_local": "المطار ", "agency": "P_O_14" }, "geometry": { "type": "Point", "coordinates": [ 29.8945392, 31.1996574 ] } },
{ "type": "Feature", "properties": { "gid": "275", "id": "G6FkC-gPQ2ICOHQeNty8U", "notes": null, "status": "accepted", "created_at": "14 Nov 2022 16:42:55 (UTC)", "bus_number": null, "origin_name": "Train Station (El-Shohada Square)", "origin_name_local": "المحطة (ميدان الشهداء)", "destination_name": "Abis 8", "destination_name_local": "ابيس الثمانيات", "agency": "P_O_14" }, "geometry": { "type": "Point", "coordinates": [ 29.9040956, 31.1934027 ] } },
{ "type": "Feature", "properties": { "gid": "276", "id": "z7bvxziw1YOYKQev8Vqi5", "notes": null, "status": "accepted", "created_at": "15 Nov 2022 12:02:07 (UTC)", "bus_number": null, "origin_name": "El-Mawqaf El-Geded", "origin_name_local": "الموقف الجديد ", "destination_name": "Al-Milaha", "destination_name_local": "الملاحه ", "agency": "P_O_14" }, "geometry": { "type": "Point", "coordinates": [ 29.9159383, 31.1777067 ] } },
{ "type": "Feature", "properties": { "gid": "277", "id": "PD8wL5L1bu8uPoFIIeUtW", "notes": null, "status": "accepted", "created_at": "15 Nov 2022 16:35:57 (UTC)", "bus_number": null, "origin_name": "Sidi Bishr", "origin_name_local": "سيدي بشر ", "destination_name": "Karmus", "destination_name_local": "كرموز ", "agency": "P_O_14" }, "geometry": { "type": "Point", "coordinates": [ 29.9925166, 31.2559039 ] } },
{ "type": "Feature", "properties": { "gid": "278", "id": "y80g2MxCMAM5p92xcIa-F", "notes": "Fake gps based on previously seen service", "status": "accepted", "created_at": "27 Nov 2022 10:28:35 (UTC)", "bus_number": null, "origin_name": "El-Mandara", "origin_name_local": "المندرة ", "destination_name": "Abu Qir", "destination_name_local": "أبو قير", "agency": "P_O_14" }, "geometry": { "type": "Point", "coordinates": [ 30.012163196468485, 31.278188494689591 ] } },
{ "type": "Feature", "properties": { "gid": "279", "id": "3fceepHffuWRtspZ1XNDf", "notes": null, "status": "accepted", "created_at": "15 Nov 2022 11:46:58 (UTC)", "bus_number": null, "origin_name": "El-Mawqaf El-Geded", "origin_name_local": "الموقف الجديد ", "destination_name": "Shatibi", "destination_name_local": "الشاطبي ", "agency": "P_O_14" }, "geometry": { "type": "Point", "coordinates": [ 29.915222, 31.1785615 ] } },
{ "type": "Feature", "properties": { "gid": "281", "id": "IfUfFmvH3R_ayy161vE8r", "notes": ".", "status": "accepted", "created_at": "17 Nov 2022 14:50:41 (UTC)", "bus_number": "10", "origin_name": "Raml Station", "origin_name_local": "محطة الرمل", "destination_name": "Qism Awwel Amreyya", "destination_name_local": "قسم أول عامرية", "agency": "Bus" }, "geometry": { "type": "Point", "coordinates": [ 29.8990547, 31.2004232 ] } },
{ "type": "Feature", "properties": { "gid": "286", "id": "2b7IdtFz4rNpenJ3BgDrZ", "notes": ".", "status": "accepted", "created_at": "11 Dec 2022 18:35:59 (UTC)", "bus_number": null, "origin_name": "Victoria station", "origin_name_local": "محطة فيكتوريا", "destination_name": "El-Mansheya", "destination_name_local": "المنشية ", "agency": "P_O_14" }, "geometry": { "type": "Point", "coordinates": [ 29.9784762, 31.2478264 ] } },
{ "type": "Feature", "properties": { "gid": "287", "id": "GGwL_21obzCOrgLGVo_u1", "notes": ".", "status": "accepted", "created_at": "11 Dec 2022 18:35:15 (UTC)", "bus_number": null, "origin_name": "Victoria station", "origin_name_local": "محطة فيكتوريا", "destination_name": "Al-Seyouf (Falaky)", "destination_name_local": "السيوف (الفلكي)", "agency": "P_O_14" }, "geometry": { "type": "Point", "coordinates": [ 29.9784762, 31.2478262 ] } },
{ "type": "Feature", "properties": { "gid": "288", "id": "VRJtdRpsVbSIb3E2XYis6", "notes": ".", "status": "accepted", "created_at": "11 Dec 2022 18:32:49 (UTC)", "bus_number": null, "origin_name": "Victoria station", "origin_name_local": "محطة فيكتوريا", "destination_name": "El-Awayed", "destination_name_local": "العوايد ", "agency": "P_O_14" }, "geometry": { "type": "Point", "coordinates": [ 29.9784812, 31.2476125 ] } },
{ "type": "Feature", "properties": { "gid": "289", "id": "zeweRu0xHwGFJDr7xXHA8", "notes": ".", "status": "accepted", "created_at": "11 Dec 2022 18:30:03 (UTC)", "bus_number": null, "origin_name": "Victoria station", "origin_name_local": "محطة فيكتوريا", "destination_name": "El-Awayed", "destination_name_local": "العوايد ", "agency": "P_B_8" }, "geometry": { "type": "Point", "coordinates": [ 29.9790608, 31.2477447 ] } },
{ "type": "Feature", "properties": { "gid": "292", "id": "gWCj3h4tyfvQM6IzDDJwj", "notes": ".", "status": "accepted", "created_at": "11 Dec 2022 12:26:27 (UTC)", "bus_number": null, "origin_name": "El-Mandara", "origin_name_local": "المندرة ", "destination_name": "Abu Qir", "destination_name_local": "أبو قير", "agency": "P_O_14" }, "geometry": { "type": "Point", "coordinates": [ 30.0160001, 31.2798622 ] } },
{ "type": "Feature", "properties": { "gid": "294", "id": "Ds4XO-wgyZ7GaMvukCq1s", "notes": null, "status": "accepted", "created_at": "15 Nov 2022 12:59:40 (UTC)", "bus_number": null, "origin_name": "El-Awayed", "origin_name_local": "العوايد ", "destination_name": "Al-Rahma", "destination_name_local": "الرحمة ", "agency": "P_B_8" }, "geometry": { "type": "Point", "coordinates": [ 29.9941156, 31.2180979 ] } },
{ "type": "Feature", "properties": { "gid": "295", "id": "c-6Ft9beJlkkbyjUT0s_Q", "notes": null, "status": "accepted", "created_at": "14 Nov 2022 15:11:05 (UTC)", "bus_number": null, "origin_name": "Train Station (El-Shohada Square)", "origin_name_local": "المحطة (ميدان الشهداء)", "destination_name": "Hadid wal-Solb", "destination_name_local": "الحديد والصلب ", "agency": "P_O_14" }, "geometry": { "type": "Point", "coordinates": [ 29.9038148, 31.191129 ] } },
{ "type": "Feature", "properties": { "gid": "296", "id": "rFw5A3SsTTC7xBftedEbD", "notes": ".", "status": "accepted", "created_at": "15 Dec 2022 08:21:29 (UTC)", "bus_number": null, "origin_name": "Sidi Bishr Tram ", "origin_name_local": "ترام سيدي بشر", "destination_name": "Sidi Bishr", "destination_name_local": "سيدي بشر ", "agency": "P_O_14" }, "geometry": { "type": "Point", "coordinates": [ 29.9917532, 31.25672 ] } },
{ "type": "Feature", "properties": { "gid": "297", "id": "GbGH1P7NxmyxapzHGRup_", "notes": ".", "status": "accepted", "created_at": "12 Dec 2022 16:39:37 (UTC)", "bus_number": null, "origin_name": "Victoria station", "origin_name_local": "محطة فيكتوريا", "destination_name": "El-Mandara", "destination_name_local": "المندرة ", "agency": "P_O_14" }, "geometry": { "type": "Point", "coordinates": [ 29.9810771, 31.2494068 ] } },
{ "type": "Feature", "properties": { "gid": "298", "id": "BFUObYYZnKWVutA-ia8zH", "notes": ".", "status": "accepted", "created_at": "13 Dec 2022 09:54:36 (UTC)", "bus_number": null, "origin_name": "El-Mandara", "origin_name_local": "المندرة ", "destination_name": "El-Sa'ah (Clock Square)", "destination_name_local": "الساعة ", "agency": "P_O_14" }, "geometry": { "type": "Point", "coordinates": [ 30.0175094, 31.2762595 ] } },
{ "type": "Feature", "properties": { "gid": "300", "id": "cw8zr4jW4rrdskKhjeM-m", "notes": null, "status": "accepted", "created_at": "15 Nov 2022 12:07:38 (UTC)", "bus_number": null, "origin_name": "El-Mawqaf El-Geded", "origin_name_local": "الموقف الجديد ", "destination_name": "Borg El Arab Al Arbaneyat Prison", "destination_name_local": "سجن برج العرب الغربانيات", "agency": "P_O_14" }, "geometry": { "type": "Point", "coordinates": [ 29.9156368, 31.1772276 ] } },
{ "type": "Feature", "properties": { "gid": "301", "id": "06iBIn6pn6jzqWmX--YVr", "notes": ".", "status": "accepted", "created_at": "13 Dec 2022 09:07:43 (UTC)", "bus_number": null, "origin_name": "Abo Soliman", "origin_name_local": "أبو سليمان", "destination_name": "El-Sa'ah (Clock Square)", "destination_name_local": "الساعة ", "agency": "P_B_8" }, "geometry": { "type": "Point", "coordinates": [ 29.9836322, 31.2241307 ] } },
{ "type": "Feature", "properties": { "gid": "303", "id": "kB6C9W5LIJcyG2SIolNlq", "notes": ".", "status": "accepted", "created_at": "13 Dec 2022 08:55:35 (UTC)", "bus_number": null, "origin_name": "Abo Soliman", "origin_name_local": "أبو سليمان", "destination_name": "El-Mansheya", "destination_name_local": "المنشية ", "agency": "P_O_14" }, "geometry": { "type": "Point", "coordinates": [ 29.9830863, 31.2294434 ] } },
{ "type": "Feature", "properties": { "gid": "304", "id": "hOwlSRp4ik_vHbXRT6B1a", "notes": ".", "status": "accepted", "created_at": "13 Dec 2022 08:55:03 (UTC)", "bus_number": null, "origin_name": "Abo Soliman", "origin_name_local": "أبو سليمان", "destination_name": "Train Station (El-Shohada Square)", "destination_name_local": "المحطة (ميدان الشهداء)", "agency": "P_O_14" }, "geometry": { "type": "Point", "coordinates": [ 29.9830855, 31.2294551 ] } },
{ "type": "Feature", "properties": { "gid": "305", "id": "Aq0iJEWbgYJeF-vXJeArO", "notes": "..\n", "status": "accepted", "created_at": "13 Dec 2022 10:48:34 (UTC)", "bus_number": null, "origin_name": "Al-Milaha", "origin_name_local": "الملاحه ", "destination_name": "Izbat Hawd 10", "destination_name_local": "عزبة حوض 10", "agency": "P_B_8" }, "geometry": { "type": "Point", "coordinates": [ 30.028099, 31.2640511 ] } },
{ "type": "Feature", "properties": { "gid": "306", "id": "BHz1sMYfu7jegiBlNIf4s", "notes": ".", "status": "accepted", "created_at": "12 Dec 2022 11:52:18 (UTC)", "bus_number": null, "origin_name": "Shahr Al-Asal", "origin_name_local": "شهر العسل", "destination_name": "Al-Wardiyan", "destination_name_local": "الورديان", "agency": "P_O_14" }, "geometry": { "type": "Point", "coordinates": [ 29.7808172, 31.1278494 ] } },
{ "type": "Feature", "properties": { "gid": "307", "id": "kUFsbdxi8yTjzWoNqVbHx", "notes": ".", "status": "accepted", "created_at": "13 Dec 2022 09:00:47 (UTC)", "bus_number": null, "origin_name": "Abo Soliman", "origin_name_local": "أبو سليمان", "destination_name": "Hadra", "destination_name_local": "الحضرة", "agency": "P_O_14" }, "geometry": { "type": "Point", "coordinates": [ 29.982946, 31.2316136 ] } },
{ "type": "Feature", "properties": { "gid": "308", "id": "otCkwgy5Hzqpq3IWUyX6Y", "notes": ".", "status": "accepted", "created_at": "13 Dec 2022 06:46:46 (UTC)", "bus_number": null, "origin_name": "Sidi Bishr Tram ", "origin_name_local": "ترام سيدي بشر", "destination_name": "Sidi Bishr", "destination_name_local": "سيدي بشر ", "agency": "P_O_14" }, "geometry": { "type": "Point", "coordinates": [ 29.9764299, 31.2528168 ] } },
{ "type": "Feature", "properties": { "gid": "309", "id": "_JFbZm-4lY2-dReZFnmOR", "notes": "...", "status": "accepted", "created_at": "13 Dec 2022 10:48:59 (UTC)", "bus_number": null, "origin_name": "Al-Milaha", "origin_name_local": "الملاحه ", "destination_name": "Izbat Hawd 12", "destination_name_local": "عزبة حوض 12", "agency": "P_B_8" }, "geometry": { "type": "Point", "coordinates": [ 30.0283318, 31.2639004 ] } }
]
}
